<?xml version="1.0"?>
<robot xmlns:xacro="http://ros.org/wiki/xacro">
	<!-- Thruster link -->
   <xacro:macro name="thruster_link" params="name xyz rpy">

       <joint name="${name}" type="fixed">
           <parent link="base_link"/>
           <child link="${name}"/>
           <origin rpy="${rpy}" xyz="${xyz}"/>
           <limit effort="0" velocity="5.0" lower="0" upper="0" />
       </joint>

       <link name="${name}">
           <buoyancy><compensation>1.0</compensation></buoyancy>
           <visual>
               <origin xyz="${-tr2} ${tl2} ${tl2} " rpy="${PI} 0 0"/>
               <geometry>
                   <mesh filename="package://syrena_gazebo/models/T200-THRUSTER-R1.STL" scale="0.001 0.001 0.001"/>
               </geometry>
           </visual>
       </link>

       <gazebo reference="${name}">
           <material>Gazebo/Black</material>
       </gazebo>
   </xacro:macro>
</robot>