<?xml version="1.0" encoding="utf-8"?>
<COLLADA xmlns="http://www.collada.org/2005/11/COLLADASchema" version="1.4.1">
  <asset>
    <contributor>
      <author>Blender User</author>
      <authoring_tool>Blender 2.74.0 commit date:2015-03-31, commit time:13:39, hash:000dfc0</authoring_tool>
    </contributor>
    <created>2015-06-23T16:36:27</created>
    <modified>2015-06-23T16:36:27</modified>
    <unit name="meter" meter="1"/>
    <up_axis>Z_UP</up_axis>
  </asset>
  <library_cameras>
    <camera id="Camera-camera" name="Camera">
      <optics>
        <technique_common>
          <perspective>
            <xfov sid="xfov">49.13434</xfov>
            <aspect_ratio>1.777778</aspect_ratio>
            <znear sid="znear">0.1</znear>
            <zfar sid="zfar">100</zfar>
          </perspective>
        </technique_common>
      </optics>
      <extra>
        <technique profile="blender">
          <YF_dofdist>0</YF_dofdist>
          <shiftx>0</shiftx>
          <shifty>0</shifty>
        </technique>
      </extra>
    </camera>
  </library_cameras>
  <library_lights>
    <light id="Lamp-light" name="Lamp">
      <technique_common>
        <point>
          <color sid="color">1 1 1</color>
          <constant_attenuation>1</constant_attenuation>
          <linear_attenuation>0</linear_attenuation>
          <quadratic_attenuation>0.00111109</quadratic_attenuation>
        </point>
      </technique_common>
      <extra>
        <technique profile="blender">
          <adapt_thresh>0.000999987</adapt_thresh>
          <area_shape>1</area_shape>
          <area_size>0.1</area_size>
          <area_sizey>0.1</area_sizey>
          <area_sizez>1</area_sizez>
          <atm_distance_factor>1</atm_distance_factor>
          <atm_extinction_factor>1</atm_extinction_factor>
          <atm_turbidity>2</atm_turbidity>
          <att1>0</att1>
          <att2>1</att2>
          <backscattered_light>1</backscattered_light>
          <bias>1</bias>
          <blue>1</blue>
          <buffers>1</buffers>
          <bufflag>0</bufflag>
          <bufsize>2880</bufsize>
          <buftype>2</buftype>
          <clipend>30.002</clipend>
          <clipsta>1.000799</clipsta>
          <compressthresh>0.04999995</compressthresh>
          <dist sid="blender_dist">29.99998</dist>
          <energy sid="blender_energy">1</energy>
          <falloff_type>2</falloff_type>
          <filtertype>0</filtertype>
          <flag>0</flag>
          <gamma sid="blender_gamma">1</gamma>
          <green>1</green>
          <halo_intensity sid="blnder_halo_intensity">1</halo_intensity>
          <horizon_brightness>1</horizon_brightness>
          <mode>8192</mode>
          <ray_samp>1</ray_samp>
          <ray_samp_method>1</ray_samp_method>
          <ray_samp_type>0</ray_samp_type>
          <ray_sampy>1</ray_sampy>
          <ray_sampz>1</ray_sampz>
          <red>1</red>
          <samp>3</samp>
          <shadhalostep>0</shadhalostep>
          <shadow_b sid="blender_shadow_b">0</shadow_b>
          <shadow_g sid="blender_shadow_g">0</shadow_g>
          <shadow_r sid="blender_shadow_r">0</shadow_r>
          <sky_colorspace>0</sky_colorspace>
          <sky_exposure>1</sky_exposure>
          <skyblendfac>1</skyblendfac>
          <skyblendtype>1</skyblendtype>
          <soft>3</soft>
          <spotblend>0.15</spotblend>
          <spotsize>75</spotsize>
          <spread>1</spread>
          <sun_brightness>1</sun_brightness>
          <sun_effect_type>0</sun_effect_type>
          <sun_intensity>1</sun_intensity>
          <sun_size>1</sun_size>
          <type>0</type>
        </technique>
      </extra>
    </light>
  </library_lights>
  <library_images/>
  <library_effects>
    <effect id="Material_001-effect">
      <profile_COMMON>
        <technique sid="common">
          <phong>
            <emission>
              <color sid="emission">0 0 0 1</color>
            </emission>
            <ambient>
              <color sid="ambient">0 0 0 1</color>
            </ambient>
            <diffuse>
              <color sid="diffuse">0 0.8 0 1</color>
            </diffuse>
            <specular>
              <color sid="specular">0.5 0.5 0.5 1</color>
            </specular>
            <shininess>
              <float sid="shininess">50</float>
            </shininess>
            <index_of_refraction>
              <float sid="index_of_refraction">1</float>
            </index_of_refraction>
          </phong>
        </technique>
      </profile_COMMON>
    </effect>
  </library_effects>
  <library_materials>
    <material id="Material_001-material" name="Material_001">
      <instance_effect url="#Material_001-effect"/>
    </material>
  </library_materials>
  <library_geometries>
    <geometry id="Sphere-mesh" name="Sphere">
      <mesh>
        <source id="Sphere-mesh-positions">
          <float_array id="Sphere-mesh-positions-array" count="1446">-0.02243536 0 0.1127903 -0.04400855 0 0.1062461 -0.06389057 0 0.09561896 -0.08131724 0 0.08131724 -0.09561902 0 0.06389057 -0.1062461 0 0.04400855 -0.1127903 0 0.02243536 -0.115 0 0 -0.1127903 0 -0.02243536 -0.1062461 0 -0.04400855 -0.09561902 0 -0.06389057 -0.08131724 0 -0.08131724 -0.06389057 0 -0.09561902 -0.04400855 0 -0.1062461 -0.0224353 0 -0.1127903 -0.02200424 0.004376888 0.1127903 -0.04316294 0.008585631 0.1062461 -0.06266289 0.0124644 0.09561896 -0.07975476 0.01586419 0.08131724 -0.0937817 0.01865434 0.06389057 -0.1042046 0.02072757 0.04400855 -0.1106231 0.0220043 0.02243536 -0.1127903 0.02243536 0 -0.1106231 0.0220043 -0.02243536 -0.1042046 0.02072757 -0.04400855 -0.0937817 0.01865434 -0.06389057 -0.07975476 0.01586419 -0.08131724 -0.06266289 0.0124644 -0.09561902 -0.04316294 0.008585631 -0.1062461 -0.02200424 0.004376888 -0.1127903 -0.02072757 0.008585631 0.1127903 -0.04065859 0.01684135 0.1062461 -0.05902719 0.02444988 0.09561896 -0.07512736 0.03111875 0.08131724 -0.0883404 0.03659182 0.06389057 -0.09815859 0.04065865 0.04400855 -0.1042046 0.04316294 0.02243536 -0.1062461 0.04400861 0 -0.1042046 0.043163 -0.02243536 -0.09815859 0.04065865 -0.04400855 -0.0883404 0.03659182 -0.06389057 -0.07512736 0.03111875 -0.08131724 -0.05902713 0.02444982 -0.09561902 -0.04065859 0.01684135 -0.1062461 -0.02072751 0.008585631 -0.1127903 -0.01865428 0.0124644 0.1127903 -0.03659176 0.02444988 0.1062461 -0.05312305 0.03549569 0.09561896 -0.06761282 0.04517745 0.08131724 -0.07950425 0.05312305 0.06389057 -0.0883404 0.05902719 0.04400855 -0.0937817 0.06266295 0.02243536 -0.09561896 0.06389057 0 -0.0937817 0.06266295 -0.02243536 -0.0883404 0.05902719 -0.04400855 -0.07950425 0.05312305 -0.06389057 -0.06761282 0.04517745 -0.08131724 -0.05312305 0.03549569 -0.09561902 -0.03659176 0.02444982 -0.1062461 -0.01865428 0.0124644 -0.1127903 -0.01586419 0.01586419 0.1127903 -0.03111875 0.03111875 0.1062461 -0.0451774 0.04517745 0.09561896 -0.05749994 0.0575 0.08131724 -0.06761282 0.06761288 0.06389057 -0.0751273 0.07512736 0.04400855 -0.07975476 0.07975476 0.02243536 -0.08131724 0.0813173 0 -0.07975476 0.07975476 -0.02243536 -0.0751273 0.07512736 -0.04400855 -0.06761282 0.06761288 -0.06389057 -0.05749994 0.0575 -0.08131724 -0.0451774 0.04517745 -0.09561902 -0.03111875 0.03111875 -0.1062461 -0.01586413 0.01586419 -0.1127903 -0.0124644 0.01865434 0.1127903 -0.02444982 0.03659182 0.1062461 -0.03549563 0.05312305 0.09561896 -0.0451774 0.06761288 0.08131724 -0.05312305 0.07950431 0.06389057 -0.05902713 0.08834046 0.04400855 -0.06266289 0.0937817 0.02243536 -0.06389051 0.09561902 0 -0.06266289 0.0937817 -0.02243536 -0.05902713 0.08834046 -0.04400855 -0.05312305 0.07950431 -0.06389057 -0.0451774 0.06761288 -0.08131724 -0.03549563 0.05312305 -0.09561902 -0.02444982 0.03659182 -0.1062461 -0.01246434 0.01865434 -0.1127903 -0.008585572 0.02072757 0.1127903 -0.01684129 0.04065865 0.1062461 -0.02444982 0.05902719 0.09561896 -0.03111875 0.07512736 0.08131724 -0.03659176 0.08834046 0.06389057 -0.04065859 0.09815865 0.04400855 -0.04316294 0.1042047 0.02243536 -0.04400855 0.1062461 0 -0.04316294 0.1042047 -0.02243536 -0.04065859 0.09815865 -0.04400855 -0.03659176 0.08834046 -0.06389057 -0.03111875 0.07512736 -0.08131724 -0.02444982 0.05902719 -0.09561902 -0.01684129 0.04065865 -0.1062461 -0.008585572 0.02072757 -0.1127903 -0.004376888 0.0220043 0.1127903 -0.008585572 0.043163 0.1062461 -0.01246434 0.06266295 0.09561896 -0.01586413 0.07975476 0.08131724 -0.01865428 0.0937817 0.06389057 -0.02072751 0.1042047 0.04400855 -0.02200424 0.1106231 0.02243536 -0.0224353 0.1127903 0 -0.02200424 0.1106231 -0.02243536 -0.02072751 0.1042047 -0.04400855 -0.01865428 0.0937817 -0.06389057 -0.01586413 0.07975476 -0.08131724 -0.01246434 0.06266295 -0.09561902 -0.008585572 0.04316294 -0.1062461 -0.004376888 0.0220043 -0.1127903 0 0.02243542 0.1127903 0 0.04400861 0.1062461 0 0.06389057 0.09561896 0 0.0813173 0.08131724 0 0.09561902 0.06389057 0 0.1062461 0.04400855 0 0.1127903 0.02243536 0 0.115 0 0 0.1127903 -0.02243536 0 0.1062461 -0.04400855 0 0.09561902 -0.06389057 0 0.0813173 -0.08131724 0 0.06389057 -0.09561902 0 0.04400855 -0.1062461 0 0.02243536 -0.1127903 0.004376947 0.0220043 0.1127903 0.008585691 0.043163 0.1062461 0.01246446 0.06266295 0.09561896 0.01586425 0.07975476 0.08131724 0.01865434 0.0937817 0.06389057 0.02072763 0.1042046 0.04400855 0.0220043 0.1106231 0.02243536 0.02243542 0.1127903 0 0.0220043 0.1106231 -0.02243536 0.02072763 0.1042047 -0.04400855 0.01865434 0.0937817 -0.06389057 0.01586425 0.07975476 -0.08131724 0.01246446 0.06266295 -0.09561902 0.008585691 0.04316294 -0.1062461 0.004376947 0.0220043 -0.1127903 0.008585691 0.02072757 0.1127903 0.01684141 0.04065865 0.1062461 0.02444988 0.05902719 0.09561896 0.03111881 0.07512736 0.08131724 0.03659182 0.08834046 0.06389057 0.04065865 0.09815859 0.04400855 0.043163 0.1042047 0.02243536 0.04400861 0.1062461 0 0.043163 0.1042047 -0.02243536 0.04065865 0.09815865 -0.04400855 0.03659182 0.08834046 -0.06389057 0.03111881 0.07512736 -0.08131724 0.02444988 0.05902719 -0.09561902 0.01684135 0.04065859 -0.1062461 0.008585691 0.02072757 -0.1127903 0.01246446 0.01865434 0.1127903 0.02444988 0.03659182 0.1062461 0.03549569 0.05312305 0.09561896 0.04517745 0.06761282 0.08131724 0.05312311 0.07950431 0.06389057 0.05902719 0.0883404 0.04400855 0.06266295 0.0937817 0.02243536 0.06389057 0.09561896 0 0.06266295 0.0937817 -0.02243536 0.05902719 0.08834046 -0.04400855 0.05312311 0.07950431 -0.06389057 0.04517745 0.06761282 -0.08131724 0.03549575 0.05312305 -0.09561902 0.02444988 0.03659176 -0.1062461 0.01246446 0.01865434 -0.1127903 0.01586425 0.01586419 0.1127903 0.03111881 0.03111875 0.1062461 0.04517745 0.04517745 0.09561896 0.0575 0.0575 0.08131724 0.06761288 0.06761282 0.06389057 0.07512736 0.07512736 0.04400855 0.07975482 0.07975476 0.02243536 0.0813173 0.08131724 0 0.07975482 0.07975476 -0.02243536 0.07512736 0.07512736 -0.04400855 0.06761288 0.06761282 -0.06389057 0.0575 0.0575 -0.08131724 0.04517745 0.04517745 -0.09561902 0.03111881 0.03111875 -0.1062461 0.01586425 0.01586419 -0.1127903 0.0186544 0.0124644 0.1127903 0.03659182 0.02444982 0.1062461 0.05312311 0.03549569 0.09561896 0.06761288 0.04517745 0.08131724 0.07950431 0.05312305 0.06389057 0.08834046 0.05902719 0.04400855 0.0937817 0.06266289 0.02243536 0.09561902 0.06389051 0 0.0937817 0.06266289 -0.02243536 0.08834046 0.05902719 -0.04400855 0.07950431 0.05312305 -0.06389057 0.06761288 0.04517745 -0.08131724 0.05312311 0.03549569 -0.09561902 0.03659182 0.02444982 -0.1062461 0.01865434 0.0124644 -0.1127903 0.02072763 0.008585631 0.1127903 0.04065865 0.01684135 0.1062461 0.05902719 0.02444982 0.09561896 0.07512742 0.03111875 0.08131724 0.08834046 0.03659176 0.06389057 0.09815865 0.04065859 0.04400855 0.1042047 0.04316294 0.02243536 0.1062461 0.04400855 0 0.1042047 0.04316294 -0.02243536 0.09815865 0.04065859 -0.04400855 0.08834046 0.03659176 -0.06389057 0.07512742 0.03111875 -0.08131724 0.05902719 0.02444982 -0.09561902 0.04065865 0.01684135 -0.1062461 0.02072763 0.008585631 -0.1127903 0.02200436 0.004376888 0.1127903 0.043163 0.008585631 0.1062461 0.06266295 0.0124644 0.09561896 0.07975482 0.01586419 0.08131724 0.09378176 0.01865434 0.06389057 0.1042047 0.02072757 0.04400855 0.1106231 0.02200424 0.02243536 0.1127903 0.02243536 0 0.1106231 0.02200424 -0.02243536 0.1042047 0.02072757 -0.04400855 0.09378176 0.01865434 -0.06389057 0.07975482 0.01586419 -0.08131724 0.06266295 0.0124644 -0.09561902 0.043163 0.008585631 -0.1062461 0.0220043 0.004376888 -0.1127903 0.02243542 0 0.1127903 0.04400861 0 0.1062461 0.06389057 0 0.09561896 0.0813173 0 0.08131724 0.09561902 0 0.06389057 0.1062461 0 0.04400855 0.1127903 0 0.02243536 0.115 0 0 0.1127903 0 -0.02243536 0.1062461 0 -0.04400855 0.09561902 0 -0.06389057 0.0813173 0 -0.08131724 0.06389057 0 -0.09561902 0.04400861 0 -0.1062461 0.02243542 0 -0.1127903 0.02200436 -0.004376888 0.1127903 0.043163 -0.008585631 0.1062461 0.06266295 -0.0124644 0.09561896 0.07975482 -0.01586419 0.08131724 0.0937817 -0.01865434 0.06389057 0.1042047 -0.02072757 0.04400855 0.1106231 -0.02200424 0.02243536 0.1127903 -0.02243536 0 0.1106231 -0.02200424 -0.02243536 0.1042047 -0.02072757 -0.04400855 0.0937817 -0.01865434 -0.06389057 0.07975482 -0.01586419 -0.08131724 0.06266295 -0.0124644 -0.09561902 0.043163 -0.008585631 -0.1062461 0.0220043 -0.004376888 -0.1127903 0.02072763 -0.008585631 0.1127903 0.04065865 -0.01684135 0.1062461 0.05902719 -0.02444982 0.09561896 0.07512736 -0.03111875 0.08131724 0.08834046 -0.03659176 0.06389057 0.09815859 -0.04065859 0.04400855 0.1042047 -0.04316294 0.02243536 0.1062461 -0.04400855 0 0.1042047 -0.04316294 -0.02243536 0.09815865 -0.04065859 -0.04400855 0.08834046 -0.03659176 -0.06389057 0.07512736 -0.03111875 -0.08131724 0.05902719 -0.02444982 -0.09561902 0.04065865 -0.01684135 -0.1062461 0.02072763 -0.008585631 -0.1127903 0.01865434 -0.0124644 0.1127903 0.03659182 -0.02444988 0.1062461 0.05312305 -0.03549569 0.09561896 0.06761282 -0.04517745 0.08131724 0.07950431 -0.05312305 0.06389057 0.0883404 -0.05902713 0.04400855 0.0937817 -0.06266289 0.02243536 0.09561896 -0.06389051 0 0.0937817 -0.06266289 -0.02243536 0.08834046 -0.05902713 -0.04400855 0.07950431 -0.05312305 -0.06389057 0.06761282 -0.04517745 -0.08131724 0.05312305 -0.03549569 -0.09561902 0.03659182 -0.02444982 -0.1062461 0.01865434 -0.0124644 -0.1127903 0.01586425 -0.01586419 0.1127903 0.03111881 -0.03111875 0.1062461 0.04517745 -0.04517745 0.09561896 0.0575 -0.05749994 0.08131724 0.06761288 -0.06761282 0.06389057 0.07512736 -0.0751273 0.04400855 0.07975476 -0.07975476 0.02243536 0.08131724 -0.08131724 0 0.07975476 -0.07975476 -0.02243536 0.07512736 -0.0751273 -0.04400855 0.06761288 -0.06761282 -0.06389057 0.0575 -0.05749994 -0.08131724 0.04517745 -0.04517745 -0.09561902 0.03111881 -0.03111875 -0.1062461 0.01586425 -0.01586419 -0.1127903 0.01246446 -0.01865434 0.1127903 0.02444988 -0.03659182 0.1062461 0.03549569 -0.05312305 0.09561896 0.04517745 -0.06761282 0.08131724 0.05312305 -0.07950425 0.06389057 0.05902719 -0.0883404 0.04400855 0.06266295 -0.09378165 0.02243536 0.06389057 -0.09561896 0 0.06266295 -0.09378165 -0.02243536 0.05902719 -0.0883404 -0.04400855 0.05312305 -0.07950425 -0.06389057 0.04517745 -0.06761282 -0.08131724 0.03549569 -0.05312305 -0.09561902 0.02444988 -0.03659176 -0.1062461 0.01246446 -0.01865434 -0.1127903 0 0 -0.115 0.008585691 -0.02072757 0.1127903 0.01684135 -0.04065865 0.1062461 0.02444988 -0.05902713 0.09561896 0.03111875 -0.07512736 0.08131724 0.03659182 -0.0883404 0.06389057 0.04065865 -0.09815859 0.04400855 0.043163 -0.1042046 0.02243536 0.04400855 -0.1062461 0 0.043163 -0.1042046 -0.02243536 0.04065865 -0.09815859 -0.04400855 0.03659182 -0.0883404 -0.06389057 0.03111875 -0.07512736 -0.08131724 0.02444982 -0.05902713 -0.09561902 0.01684135 -0.04065859 -0.1062461 0.008585631 -0.02072757 -0.1127903 0.004376947 -0.0220043 0.1127903 0.008585631 -0.04316294 0.1062461 0.01246446 -0.06266289 0.09561896 0.01586419 -0.07975476 0.08131724 0.01865434 -0.0937817 0.06389057 0.02072757 -0.1042046 0.04400855 0.0220043 -0.110623 0.02243536 0.02243536 -0.1127902 0 0.0220043 -0.110623 -0.02243536 0.02072757 -0.1042046 -0.04400855 0.01865434 -0.0937817 -0.06389057 0.01586419 -0.07975476 -0.08131724 0.0124644 -0.06266289 -0.09561902 0.008585631 -0.04316294 -0.1062461 0.004376947 -0.02200424 -0.1127903 0 -0.02243536 0.1127903 0 -0.04400855 0.1062461 0 -0.06389051 0.09561896 0 -0.08131724 0.08131724 0 -0.09561896 0.06389057 0 -0.1062461 0.04400855 0 -0.1127902 0.02243536 0 -0.1149999 0 0 -0.1127902 -0.02243536 0 -0.1062461 -0.04400855 0 -0.09561896 -0.06389057 0 -0.08131724 -0.08131724 0 -0.06389051 -0.09561902 0 -0.04400855 -0.1062461 0 -0.02243536 -0.1127903 -0.004376888 -0.0220043 0.1127903 -0.008585572 -0.04316294 0.1062461 -0.0124644 -0.06266289 0.09561896 -0.01586419 -0.07975471 0.08131724 -0.01865428 -0.0937817 0.06389057 -0.02072751 -0.1042046 0.04400855 -0.02200424 -0.110623 0.02243536 -0.0224353 -0.1127902 0 -0.02200424 -0.110623 -0.02243536 -0.02072751 -0.1042046 -0.04400855 -0.01865428 -0.0937817 -0.06389057 -0.01586419 -0.07975471 -0.08131724 -0.0124644 -0.06266289 -0.09561902 -0.008585572 -0.04316294 -0.1062461 -0.004376888 -0.02200424 -0.1127903 -0.008585572 -0.02072757 0.1127903 -0.01684129 -0.04065859 0.1062461 -0.02444982 -0.05902713 0.09561896 -0.03111875 -0.0751273 0.08131724 -0.03659176 -0.0883404 0.06389057 -0.04065859 -0.09815853 0.04400855 -0.04316294 -0.1042046 0.02243536 -0.04400855 -0.1062461 0 -0.04316294 -0.1042046 -0.02243536 -0.04065859 -0.09815859 -0.04400855 -0.03659176 -0.0883404 -0.06389057 -0.03111875 -0.0751273 -0.08131724 -0.02444982 -0.05902713 -0.09561902 -0.01684129 -0.04065859 -0.1062461 -0.008585572 -0.02072757 -0.1127903 -0.0124644 -0.01865434 0.1127903 -0.02444982 -0.03659176 0.1062461 -0.03549563 -0.05312305 0.09561896 -0.0451774 -0.06761276 0.08131724 -0.05312299 -0.07950425 0.06389057 -0.05902713 -0.08834034 0.04400855 -0.06266289 -0.09378165 0.02243536 -0.06389051 -0.0956189 0 -0.06266289 -0.09378165 -0.02243536 -0.05902713 -0.0883404 -0.04400855 -0.05312299 -0.07950425 -0.06389057 -0.0451774 -0.06761276 -0.08131724 -0.03549563 -0.05312299 -0.09561902 -0.02444982 -0.03659176 -0.1062461 -0.01246434 -0.01865428 -0.1127903 -0.01586419 -0.01586419 0.1127903 -0.03111875 -0.03111875 0.1062461 -0.0451774 -0.0451774 0.09561896 -0.05749994 -0.05749994 0.08131724 -0.06761276 -0.06761282 0.06389057 -0.0751273 -0.0751273 0.04400855 -0.07975471 -0.07975471 0.02243536 -0.08131718 -0.08131718 0 -0.07975471 -0.07975471 -0.02243536 -0.0751273 -0.0751273 -0.04400855 -0.06761276 -0.06761282 -0.06389057 -0.05749994 -0.05749994 -0.08131724 -0.0451774 -0.0451774 -0.09561902 -0.03111869 -0.03111875 -0.1062461 -0.01586413 -0.01586419 -0.1127903 -0.01865428 -0.0124644 0.1127903 -0.03659176 -0.02444982 0.1062461 -0.05312299 -0.03549563 0.09561896 -0.06761276 -0.0451774 0.08131724 -0.07950425 -0.05312305 0.06389057 -0.08834034 -0.05902713 0.04400855 -0.09378165 -0.06266289 0.02243536 -0.0956189 -0.06389051 0 -0.09378165 -0.06266289 -0.02243536 -0.08834034 -0.05902713 -0.04400855 -0.07950425 -0.05312305 -0.06389057 -0.06761276 -0.0451774 -0.08131724 -0.05312299 -0.03549563 -0.09561902 -0.0365917 -0.02444982 -0.1062461 -0.01865428 -0.0124644 -0.1127903 0 0 0.115 -0.02072757 -0.008585631 0.1127903 -0.04065859 -0.01684129 0.1062461 -0.05902713 -0.02444982 0.09561896 -0.0751273 -0.03111869 0.08131724 -0.0883404 -0.03659176 0.06389057 -0.09815853 -0.04065859 0.04400855 -0.1042045 -0.04316294 0.02243536 -0.106246 -0.04400855 0 -0.1042045 -0.04316294 -0.02243536 -0.09815853 -0.04065859 -0.04400855 -0.0883404 -0.03659176 -0.06389057 -0.0751273 -0.03111869 -0.08131724 -0.05902713 -0.02444982 -0.09561902 -0.04065859 -0.01684129 -0.1062461 -0.02072751 -0.008585631 -0.1127903 -0.02200424 -0.004376888 0.1127903 -0.04316294 -0.008585631 0.1062461 -0.06266283 -0.0124644 0.09561896 -0.07975471 -0.01586413 0.08131724 -0.09378165 -0.01865428 0.06389057 -0.1042045 -0.02072751 0.04400855 -0.110623 -0.02200424 0.02243536 -0.1127902 -0.02243536 0 -0.110623 -0.02200424 -0.02243536 -0.1042045 -0.02072751 -0.04400855 -0.09378165 -0.01865428 -0.06389057 -0.07975471 -0.01586413 -0.08131724 -0.06266283 -0.01246434 -0.09561902 -0.04316288 -0.008585631 -0.1062461 -0.02200424 -0.004376888 -0.1127903</float_array>
          <technique_common>
            <accessor source="#Sphere-mesh-positions-array" count="482" stride="3">
              <param name="X" type="float"/>
              <param name="Y" type="float"/>
              <param name="Z" type="float"/>
            </accessor>
          </technique_common>
        </source>
        <source id="Sphere-mesh-normals">
          <float_array id="Sphere-mesh-normals-array" count="2880">-0.952718 0.09383475 0.2890042 -0.7707799 0.07591527 0.6325625 -0.4708893 0.04637861 0.8809723 -0.4708894 0.04637849 -0.8809723 -0.7707798 0.07591539 -0.6325625 -0.952718 0.09383469 -0.2890041 -0.9904383 0.09754985 0.09754991 -0.8786131 0.08653604 0.469628 -0.6331585 0.06236058 0.771506 -0.2901659 0.02857887 -0.9565496 -0.2901663 0.02857887 0.9565494 -0.6331585 0.0623607 -0.771506 -0.8786131 0.08653604 -0.469628 -0.9904384 0.09754961 -0.09754955 -0.2790153 0.08463841 0.9565494 -0.6088266 0.1846855 -0.7715059 -0.8448484 0.2562823 -0.469628 -0.9523764 0.2889003 -0.09754961 -0.9161055 0.277898 0.2890046 -0.7411593 0.2248281 0.6325624 -0.4527932 0.1373534 0.8809723 -0.4527934 0.1373533 -0.8809723 -0.7411593 0.2248281 -0.6325625 -0.9161056 0.2778977 -0.2890042 -0.9523764 0.2889 0.09754991 -0.8448486 0.2562819 0.4696281 -0.6088266 0.1846854 0.771506 -0.279015 0.08463829 -0.9565496 -0.257142 0.1374453 0.9565494 -0.5610978 0.2999131 -0.771506 -0.778617 0.4161796 -0.4696276 -0.8777151 0.4691487 -0.09754961 -0.8442876 0.4512814 0.2890045 -0.6830562 0.3651012 0.6325625 -0.4172967 0.2230498 0.8809724 -0.4172967 0.2230498 -0.8809724 -0.6830562 0.3651012 -0.6325625 -0.8442877 0.4512814 -0.2890044 -0.8777149 0.4691488 0.09754967 -0.778617 0.4161795 0.4696277 -0.5610976 0.2999132 0.771506 -0.2571417 0.137445 -0.9565495 -0.2253869 0.1849702 0.9565494 -0.4918062 0.4036151 -0.771506 -0.6824635 0.5600835 -0.4696274 -0.7693237 0.6313678 -0.09754955 -0.7400243 0.6073224 0.2890045 -0.5987036 0.4913436 0.6325626 -0.3657636 0.3001745 0.8809723 -0.3657636 0.3001745 -0.8809723 -0.5987039 0.4913434 -0.6325625 -0.7400243 0.6073223 -0.2890044 -0.7693236 0.6313677 0.09754979 -0.6824635 0.5600833 0.4696276 -0.4918062 0.4036151 0.771506 -0.2253865 0.18497 -0.9565495 -0.1849702 0.2253869 0.9565494 -0.4036151 0.4918064 -0.771506 -0.5600833 0.6824637 -0.4696274 -0.6313675 0.769324 -0.0975492 -0.6073222 0.7400244 0.2890046 -0.4913435 0.5987038 0.6325625 -0.3001743 0.3657637 0.8809723 -0.3001744 0.3657637 -0.8809723 -0.4913434 0.5987039 -0.6325626 -0.6073223 0.7400243 -0.2890046 -0.6313677 0.7693236 0.09754985 -0.5600832 0.6824637 0.4696276 -0.4036148 0.4918063 0.7715062 -0.1849699 0.2253865 -0.9565495 -0.1374452 0.2571421 0.9565494 -0.2999128 0.5610979 -0.771506 -0.4161797 0.7786172 -0.4696274 -0.4691482 0.8777152 -0.09754908 -0.4512811 0.8442878 0.2890046 -0.3651008 0.6830562 0.6325627 -0.2230497 0.4172968 0.8809723 -0.2230497 0.4172968 -0.8809723 -0.3651012 0.6830562 -0.6325626 -0.4512811 0.8442878 -0.2890043 -0.4691485 0.877715 0.09754955 -0.4161797 0.7786172 0.4696274 -0.2999128 0.5610978 0.771506 -0.137445 0.2571417 -0.9565496 -0.08463829 0.2790154 0.9565494 -0.1846852 0.6088268 -0.771506 -0.2562822 0.8448489 -0.4696274 -0.2889 0.9523765 -0.09754914 -0.2778977 0.9161055 0.2890043 -0.2248277 0.741159 0.6325628 -0.1373534 0.4527934 0.8809723 -0.1373531 0.4527934 -0.8809723 -0.224828 0.7411591 -0.6325627 -0.2778974 0.9161058 -0.2890042 -0.2889 0.9523764 0.09754937 -0.2562819 0.8448488 0.4696276 -0.1846852 0.6088266 0.771506 -0.08463823 0.279015 -0.9565495 -0.02857887 0.2901663 0.9565494 -0.0623607 0.6331587 -0.7715058 -0.08653581 0.8786134 -0.4696276 -0.09754931 0.9904385 -0.09754902 -0.0938341 0.952718 0.2890045 -0.07591521 0.7707797 0.6325628 -0.04637861 0.4708894 0.8809723 -0.04637825 0.4708894 -0.8809723 -0.07591503 0.7707797 -0.6325628 -0.0938344 0.9527181 -0.2890041 -0.09754955 0.9904384 0.09754949 -0.08653575 0.8786135 0.4696273 -0.06236064 0.6331585 0.771506 -0.02857875 0.2901659 -0.9565495 0.02857887 0.2901663 0.9565494 0.0623607 0.6331585 -0.771506 0.0865361 0.8786134 -0.4696276 0.09754967 0.9904384 -0.09754925 0.09383481 0.952718 0.2890044 0.07591527 0.7707797 0.6325626 0.04637861 0.4708895 0.8809723 0.04637855 0.4708894 -0.8809723 0.07591539 0.7707797 -0.6325628 0.09383475 0.9527181 -0.2890042 0.09754985 0.9904384 0.09754943 0.0865361 0.8786135 0.4696273 0.06236064 0.6331585 0.771506 0.02857887 0.2901659 -0.9565495 0.08463841 0.2790154 0.9565495 0.1846855 0.6088266 -0.771506 0.2562822 0.8448488 -0.4696274 0.2889003 0.9523763 -0.09754937 0.2778977 0.9161055 0.2890043 0.2248281 0.7411592 0.6325627 0.1373534 0.4527935 0.8809723 0.1373533 0.4527934 -0.8809723 0.224828 0.7411591 -0.6325627 0.2778978 0.9161056 -0.2890041 0.2889004 0.9523763 0.09754979 0.256282 0.8448491 0.469627 0.1846856 0.6088264 0.771506 0.08463835 0.279015 -0.9565495 0.1374453 0.257142 0.9565494 0.2999132 0.5610978 -0.7715059 0.4161795 0.7786173 -0.4696273 0.4691488 0.8777149 -0.09754931 0.4512811 0.8442878 0.2890042 0.3651013 0.6830562 0.6325626 0.2230499 0.4172968 0.8809723 0.2230499 0.4172967 -0.8809723 0.3651015 0.6830559 -0.6325627 0.4512815 0.8442877 -0.2890037 0.4691485 0.877715 0.09754991 0.41618 0.778617 0.4696274 0.2999131 0.5610976 0.771506 0.1374452 0.2571417 -0.9565495 0.1849703 0.2253868 0.9565494 0.4036151 0.4918063 -0.771506 0.5600833 0.6824636 -0.4696276 0.6313679 0.7693235 -0.09754931 0.6073225 0.7400245 0.289004 0.4913436 0.5987037 0.6325626 0.3001747 0.3657637 0.8809723 0.3001747 0.3657636 -0.8809723 0.4913435 0.5987037 -0.6325626 0.6073226 0.7400244 -0.2890035 0.6313679 0.7693235 0.09754955 0.5600835 0.6824637 0.4696274 0.4036151 0.4918062 0.771506 0.1849701 0.2253866 -0.9565495 0.2253869 0.1849702 0.9565495 0.4918064 0.4036149 -0.771506 0.6824638 0.5600832 -0.4696276 0.769324 0.6313674 -0.0975492 0.7400245 0.6073223 0.289004 0.5987039 0.4913434 0.6325625 0.3657638 0.3001745 0.8809722 0.3657638 0.3001744 -0.8809723 0.598704 0.4913432 -0.6325626 0.7400247 0.6073223 -0.2890037 0.7693236 0.6313677 0.09754967 0.6824638 0.5600832 0.4696276 0.4918063 0.4036148 0.771506 0.2253867 0.1849699 -0.9565495 0.2571421 0.1374452 0.9565495 0.5610979 0.2999129 -0.771506 0.7786173 0.4161794 -0.4696276 0.8777152 0.4691483 -0.09754914 0.8442879 0.4512808 0.2890041 0.6830564 0.3651009 0.6325625 0.417297 0.2230498 0.8809722 0.4172969 0.2230496 -0.8809723 0.6830563 0.365101 -0.6325625 0.8442878 0.4512813 -0.2890039 0.8777151 0.4691485 0.09754931 0.7786173 0.4161794 0.4696273 0.5610978 0.2999127 0.771506 0.2571418 0.137445 -0.9565495 0.2790154 0.08463835 0.9565495 0.6088268 0.1846852 -0.7715059 0.8448488 0.2562819 -0.4696274 0.9523766 0.2888998 -0.09754884 0.9161055 0.2778974 0.2890046 0.7411594 0.2248278 0.6325625 0.4527937 0.1373533 0.8809722 0.4527935 0.1373533 -0.8809723 0.7411594 0.2248278 -0.6325625 0.9161057 0.2778975 -0.289004 0.9523764 0.2889001 0.0975492 0.8448489 0.2562817 0.4696274 0.6088266 0.1846853 0.771506 0.2790151 0.08463823 -0.9565495 0.2901664 0.02857875 0.9565494 0.6331587 0.06236046 -0.7715058 0.8786134 0.08653581 -0.4696276 0.9904385 0.09754937 -0.09754902 0.9527179 0.09383445 0.2890047 0.7707799 0.07591491 0.6325626 0.4708897 0.04637825 0.8809722 0.4708896 0.04637825 -0.8809723 0.7707799 0.07591509 -0.6325624 0.9527181 0.0938341 -0.2890037 0.9904385 0.09754925 0.0975489 0.8786135 0.08653575 0.4696274 0.6331585 0.06236028 0.771506 0.290166 0.02857875 -0.9565495 0.2901663 -0.02857899 0.9565494 0.6331586 -0.06236076 -0.7715058 0.8786134 -0.0865361 -0.4696276 0.9904385 -0.09754967 -0.09754925 0.9527179 -0.09383481 0.2890044 0.7707799 -0.07591527 0.6325625 0.4708897 -0.04637867 0.8809722 0.4708895 -0.04637855 -0.8809723 0.7707798 -0.07591539 -0.6325625 0.952718 -0.09383475 -0.2890038 0.9904384 -0.09754991 0.09754908 0.8786136 -0.0865361 0.4696273 0.6331585 -0.06236064 0.771506 0.290166 -0.02857887 -0.9565495 0.2790154 -0.08463847 0.9565494 0.6088267 -0.1846858 -0.7715058 0.8448488 -0.2562822 -0.4696274 0.9523763 -0.2889005 -0.09754925 0.9161054 -0.2778977 0.2890046 0.741159 -0.2248285 0.6325627 0.4527936 -0.1373537 0.8809722 0.4527935 -0.1373537 -0.8809722 0.7411593 -0.2248282 -0.6325625 0.9161056 -0.2778978 -0.2890039 0.9523763 -0.2889004 0.09754931 0.8448491 -0.2562822 0.469627 0.6088266 -0.1846857 0.771506 0.2790151 -0.08463823 -0.9565495 0.257142 -0.1374454 0.9565493 0.5610979 -0.2999134 -0.7715057 0.7786172 -0.4161797 -0.4696273 0.8777151 -0.4691488 -0.09754931 0.8442876 -0.4512813 0.2890046 0.6830561 -0.3651013 0.6325626 0.4172969 -0.2230501 0.8809722 0.4172969 -0.2230501 -0.8809722 0.6830561 -0.3651013 -0.6325626 0.8442878 -0.4512814 -0.2890038 0.8777151 -0.4691486 0.09754914 0.7786172 -0.4161798 0.4696271 0.5610978 -0.2999132 0.7715059 0.2571417 -0.1374452 -0.9565494 0.2253869 -0.1849703 0.9565494 0.4918063 -0.4036154 -0.7715058 0.6824635 -0.5600838 -0.4696274 0.7693234 -0.6313681 -0.09754914 0.7400243 -0.6073223 0.2890046 0.5987033 -0.4913436 0.6325629 0.3657637 -0.3001749 0.8809722 0.3657637 -0.3001749 -0.8809721 0.5987038 -0.4913434 -0.6325626 0.7400243 -0.6073225 -0.2890039 0.7693235 -0.6313679 0.0975489 0.6824639 -0.5600835 0.469627 0.4918063 -0.4036153 0.7715059 0.2253866 -0.1849701 -0.9565495 0.1849703 -0.225387 0.9565495 0.4036151 -0.4918067 -0.7715057 0.5600834 -0.6824638 -0.4696271 0.6313676 -0.769324 -0.09754866 0.6073222 -0.7400244 0.2890045 0.4913431 -0.5987038 0.6325628 0.3001745 -0.365764 0.8809722 0.3001744 -0.3657642 -0.8809722 0.4913432 -0.5987038 -0.6325628 0.6073223 -0.7400244 -0.2890042 0.6313678 -0.7693238 0.0975489 0.5600834 -0.682464 0.469627 0.403615 -0.4918065 0.7715058 0.18497 -0.2253867 -0.9565494 0.1374453 -0.2571421 0.9565494 0.2999128 -0.5610982 -0.7715057 0.4161795 -0.7786174 -0.4696272 0.4691482 -0.8777154 -0.09754848 0.4512811 -0.8442876 0.2890045 0.3651006 -0.6830562 0.632563 0.2230497 -0.4172971 0.8809722 0.2230497 -0.4172971 -0.8809721 0.3651009 -0.6830561 -0.6325627 0.4512811 -0.8442878 -0.2890042 0.4691484 -0.8777152 0.09754872 0.4161795 -0.7786175 0.4696272 0.2999129 -0.561098 0.7715059 0.137445 -0.2571419 -0.9565495 0.08463829 -0.2790156 0.9565495 0.1846854 -0.6088269 -0.7715057 0.256282 -0.844849 -0.4696272 0.2889002 -0.9523766 -0.09754884 0.2778975 -0.9161057 0.2890042 0.2248278 -0.7411589 0.632563 0.1373532 -0.4527937 0.8809722 0.1373532 -0.4527937 -0.8809722 0.2248281 -0.741159 -0.6325628 0.2778972 -0.9161058 -0.2890042 0.2888999 -0.9523766 0.09754854 0.2562821 -0.8448489 0.4696272 0.1846852 -0.6088269 0.7715057 0.08463817 -0.2790153 -0.9565495 0.02857881 -0.2901664 0.9565494 0.06236046 -0.6331589 -0.7715057 0.08653551 -0.8786137 -0.469627 0.09754937 -0.9904386 -0.09754866 0.09383416 -0.9527179 0.2890044 0.07591491 -0.7707796 0.632563 0.04637843 -0.4708897 0.8809722 0.04637831 -0.4708898 -0.8809722 0.07591503 -0.7707795 -0.6325629 0.09383445 -0.952718 -0.2890039 0.09754961 -0.9904385 0.0975489 0.08653581 -0.8786136 0.4696273 0.0623607 -0.6331587 0.7715058 0.02857881 -0.2901661 -0.9565495 -0.02857893 -0.2901665 0.9565495 -0.06236106 -0.6331588 -0.7715057 -0.08653587 -0.8786136 -0.4696273 -0.09754973 -0.9904385 -0.09754896 -0.09383451 -0.9527181 0.2890042 -0.07591563 -0.7707793 0.632563 -0.04637885 -0.4708896 0.8809722 -0.04637885 -0.4708897 -0.8809722 -0.07591539 -0.7707795 -0.6325628 -0.09383475 -0.952718 -0.289004 -0.09754991 -0.9904385 0.09754872 -0.08653616 -0.8786137 0.4696271 -0.0623607 -0.6331588 0.7715058 -0.02857893 -0.2901661 -0.9565495 -0.08463853 -0.2790155 0.9565494 -0.1846857 -0.6088269 -0.7715056 -0.2562826 -0.8448489 -0.469627 -0.2889006 -0.9523764 -0.0975486 -0.2778981 -0.9161053 0.2890046 -0.2248282 -0.7411589 0.6325631 -0.1373535 -0.4527935 0.8809722 -0.1373537 -0.4527937 -0.8809721 -0.2248281 -0.7411589 -0.632563 -0.2778975 -0.9161057 -0.2890037 -0.2889002 -0.9523764 0.09754902 -0.2562822 -0.8448489 0.4696274 -0.1846857 -0.608827 0.7715057 -0.08463835 -0.2790152 -0.9565495 -0.1374455 -0.2571421 0.9565494 -0.2999132 -0.561098 -0.7715057 -0.4161798 -0.7786175 -0.4696269 -0.4691486 -0.8777152 -0.09754872 -0.4512813 -0.8442875 0.2890046 -0.3651011 -0.6830558 0.6325631 -0.2230501 -0.4172968 0.8809723 -0.2230502 -0.417297 -0.8809721 -0.365101 -0.6830559 -0.632563 -0.4512813 -0.8442876 -0.2890042 -0.4691487 -0.8777151 0.09754872 -0.4161795 -0.7786174 0.469627 -0.2999133 -0.561098 0.7715057 -0.1374452 -0.2571418 -0.9565495 -0.1849703 -0.225387 0.9565495 -0.4036154 -0.4918063 -0.7715058 -0.5600836 -0.6824638 -0.469627 -0.6313678 -0.7693237 -0.09754866 -0.6073225 -0.7400242 0.2890046 -0.4913436 -0.5987032 0.6325632 -0.3001748 -0.3657636 0.8809723 -0.3001748 -0.3657639 -0.8809722 -0.4913434 -0.5987035 -0.632563 -0.6073225 -0.7400242 -0.2890042 -0.6313679 -0.7693235 0.0975489 -0.5600838 -0.6824638 0.4696269 -0.4036152 -0.4918065 0.7715057 -0.1849702 -0.2253867 -0.9565495 -0.225387 -0.1849703 0.9565493 -0.4918068 -0.4036151 -0.7715057 -0.6824637 -0.5600836 -0.4696273 -0.7693241 -0.6313674 -0.09754884 -0.7400245 -0.6073221 0.2890047 -0.5987036 -0.491343 0.6325632 -0.3657639 -0.3001744 0.8809722 -0.3657642 -0.3001745 -0.8809721 -0.5987036 -0.4913431 -0.6325631 -0.7400245 -0.6073224 -0.2890039 -0.7693238 -0.6313678 0.09754836 -0.6824641 -0.5600835 0.4696269 -0.4918066 -0.4036152 0.7715057 -0.2253868 -0.18497 -0.9565495 -0.2571423 -0.1374453 0.9565494 -0.5610982 -0.2999129 -0.7715057 -0.7786174 -0.4161793 -0.4696272 -0.8777152 -0.4691486 -0.0975483 -0.8442878 -0.451281 0.2890049 -0.6830559 -0.3651006 0.6325633 -0.417297 -0.2230497 0.8809722 -0.4172973 -0.2230498 -0.880972 -0.6830559 -0.3651009 -0.6325631 -0.8442879 -0.4512812 -0.2890039 -0.8777152 -0.4691484 0.09754842 -0.7786175 -0.4161796 0.4696269 -0.5610983 -0.2999131 0.7715056 -0.2571419 -0.1374452 -0.9565495 -0.2790156 -0.08463841 0.9565494 -0.6088271 -0.1846854 -0.7715057 -0.8448492 -0.2562817 -0.4696269 -0.9523766 -0.2889003 -0.09754836 -0.9161056 -0.2778971 0.289005 -0.7411587 -0.2248277 0.6325634 -0.4527936 -0.1373531 0.8809723 -0.452794 -0.1373532 -0.8809721 -0.7411587 -0.224828 -0.6325632 -0.9161057 -0.2778975 -0.2890041 -0.9523764 -0.2889002 0.09754836 -0.8448492 -0.2562822 0.4696268 -0.6088271 -0.1846855 0.7715055 -0.2790153 -0.08463817 -0.9565495 -0.0980122 0.009653329 -0.9951384 -0.09801256 0.009653329 0.9951384 -0.09424567 0.02858912 -0.9951384 -0.09424597 0.02858924 0.9951384 -0.08685731 0.04642617 -0.9951384 -0.08685755 0.04642629 0.9951383 -0.07613104 0.06247913 -0.9951384 -0.07613128 0.06247931 0.9951383 -0.06247907 0.07613104 -0.9951384 -0.06247925 0.07613128 0.9951384 -0.04642617 0.08685731 -0.9951384 -0.04642623 0.08685749 0.9951384 -0.02858906 0.09424567 -0.9951384 -0.02858912 0.09424585 0.9951384 -0.009653329 0.0980122 -0.9951384 -0.009653389 0.09801238 0.9951384 0.009653329 0.0980122 -0.9951384 0.009653389 0.09801232 0.9951384 0.02858912 0.09424567 -0.9951384 0.02858918 0.09424579 0.9951384 0.04642623 0.08685731 -0.9951384 0.04642623 0.08685737 0.9951384 0.06247913 0.07613104 -0.9951384 0.06247919 0.0761311 0.9951384 0.0761311 0.06247907 -0.9951384 0.0761311 0.06247907 0.9951383 0.08685731 0.04642611 -0.9951384 0.08685737 0.04642623 0.9951384 0.09424567 0.02858906 -0.9951384 0.09424573 0.02858906 0.9951383 0.0980122 0.009653329 -0.9951384 0.09801232 0.00965327 0.9951384 0.0980122 -0.009653329 -0.9951384 0.09801232 -0.009653389 0.9951384 0.09424567 -0.02858912 -0.9951384 0.09424579 -0.02858918 0.9951384 0.08685731 -0.04642623 -0.9951384 0.08685737 -0.04642629 0.9951384 0.07613104 -0.06247919 -0.9951384 0.07613116 -0.06247925 0.9951383 0.06247913 -0.0761311 -0.9951384 0.06247925 -0.07613122 0.9951383 0.04642617 -0.08685737 -0.9951384 0.04642629 -0.08685749 0.9951384 0.02858906 -0.09424573 -0.9951384 0.02858912 -0.09424597 0.9951384 0.009653329 -0.09801226 -0.9951384 0.009653329 -0.0980125 0.9951384 -0.009653389 -0.09801226 -0.9951384 -0.009653329 -0.09801256 0.9951383 -0.02858912 -0.09424573 -0.9951384 -0.02858924 -0.09424602 0.9951384 -0.04642623 -0.08685731 -0.9951384 -0.04642641 -0.08685761 0.9951384 -0.06247919 -0.0761311 -0.9951384 -0.06247937 -0.0761314 0.9951383 -0.0761311 -0.06247913 -0.9951384 -0.0761314 -0.06247943 0.9951384 -0.08685737 -0.04642617 -0.9951384 -0.08685767 -0.04642635 0.9951384 -0.09424573 -0.02858912 -0.9951384 -0.09424608 -0.02858918 0.9951383 -0.2901662 -0.0285803 0.9565494 -0.6331583 -0.0623638 -0.7715058 -0.8786128 -0.08653932 -0.4696279 -0.990438 -0.09755402 -0.09754931 -0.9527173 -0.09383898 0.2890055 -0.7707787 -0.07591897 0.6325635 -0.0980122 -0.009653687 -0.9951384 -0.4708892 -0.04638075 0.8809723 -0.4708894 -0.04638093 -0.8809723 -0.09801256 -0.009653866 0.9951383 -0.7707797 -0.0759173 -0.6325624 -0.9527177 -0.09383773 -0.289004 -0.9904382 -0.09755271 0.0975483 -0.8786136 -0.08653831 0.4696266 -0.6331586 -0.06236338 0.7715057 -0.2901659 -0.02858018 -0.9565496 -0.9527181 0.09383475 0.2890041 -0.7707798 0.07591533 0.6325625 -0.4708893 0.04637849 0.8809724 -0.4708894 0.04637861 -0.8809723 -0.7707799 0.07591527 -0.6325625 -0.9527181 0.09383475 -0.2890042 -0.9904384 0.09754961 0.09754967 -0.8786131 0.08653604 0.4696281 -0.6331585 0.0623607 0.771506 -0.2901658 0.02857887 -0.9565495 -0.2901663 0.02857893 0.9565494 -0.6331585 0.06236064 -0.771506 -0.8786131 0.08653604 -0.4696281 -0.9904383 0.09754985 -0.09754931 -0.2790153 0.08463841 0.9565495 -0.6088266 0.1846854 -0.771506 -0.8448488 0.2562819 -0.4696276 -0.9523763 0.2889003 -0.09754955 -0.9161056 0.2778974 0.2890041 -0.7411592 0.2248281 0.6325625 -0.4527934 0.1373533 0.8809723 -0.4527934 0.1373534 -0.8809723 -0.7411593 0.2248281 -0.6325624 -0.9161055 0.277898 -0.2890044 -0.9523763 0.2889003 0.09754961 -0.8448486 0.2562824 0.4696277 -0.6088266 0.1846855 0.7715059 -0.279015 0.08463829 -0.9565495 -0.257142 0.1374453 0.9565495 -0.5610977 0.2999132 -0.771506 -0.778617 0.4161795 -0.4696276 -0.877715 0.4691486 -0.09754955 -0.8442876 0.4512814 0.2890046 -0.6830562 0.3651013 0.6325625 -0.4172966 0.2230499 0.8809723 -0.4172968 0.2230497 -0.8809723 -0.6830562 0.3651012 -0.6325625 -0.8442877 0.4512813 -0.2890043 -0.877715 0.4691486 0.09754979 -0.778617 0.4161797 0.4696276 -0.5610978 0.2999131 0.771506 -0.2571417 0.137445 -0.9565495 -0.2253868 0.1849703 0.9565494 -0.4918064 0.4036151 -0.771506 -0.6824636 0.5600834 -0.4696277 -0.7693237 0.6313677 -0.09754961 -0.7400243 0.6073223 0.2890044 -0.5987038 0.4913435 0.6325625 -0.3657636 0.3001745 0.8809723 -0.3657636 0.3001747 -0.8809723 -0.5987036 0.4913436 -0.6325626 -0.7400243 0.6073225 -0.2890043 -0.7693237 0.6313678 0.09754979 -0.6824635 0.5600835 0.4696275 -0.4918062 0.4036151 0.7715061 -0.2253865 0.18497 -0.9565495 -0.1849702 0.2253869 0.9565495 -0.4036149 0.4918064 -0.771506 -0.5600833 0.6824638 -0.4696275 -0.6313678 0.7693237 -0.09754961 -0.6073223 0.7400243 0.2890043 -0.4913434 0.5987039 0.6325626 -0.3001744 0.3657637 0.8809723 -0.3001744 0.3657637 -0.8809723 -0.4913435 0.5987038 -0.6325625 -0.6073222 0.7400245 -0.2890044 -0.6313674 0.7693239 0.09754949 -0.5600832 0.6824637 0.4696275 -0.4036149 0.4918062 0.771506 -0.1849699 0.2253866 -0.9565495 -0.1374452 0.2571421 0.9565494 -0.2999129 0.5610979 -0.771506 -0.4161796 0.778617 -0.4696275 -0.4691485 0.8777151 -0.09754925 -0.4512812 0.8442876 0.2890045 -0.3651012 0.6830562 0.6325626 -0.2230497 0.4172968 0.8809723 -0.2230495 0.4172968 -0.8809723 -0.3651008 0.6830562 -0.6325627 -0.4512813 0.8442876 -0.2890046 -0.4691483 0.8777153 0.09754925 -0.4161794 0.7786172 0.4696276 -0.2999128 0.5610978 0.7715061 -0.137445 0.2571417 -0.9565496 -0.08463841 0.2790154 0.9565494 -0.1846853 0.6088268 -0.7715058 -0.2562819 0.8448488 -0.4696276 -0.2889 0.9523764 -0.09754914 -0.2778974 0.9161056 0.2890045 -0.224828 0.7411592 0.6325627 -0.1373531 0.4527934 0.8809723 -0.1373533 0.4527934 -0.8809723 -0.2248277 0.741159 -0.6325629 -0.2778977 0.9161056 -0.2890044 -0.2889 0.9523764 0.09754937 -0.2562822 0.8448488 0.4696274 -0.1846851 0.6088266 0.771506 -0.08463817 0.279015 -0.9565496 -0.02857893 0.2901663 0.9565494 -0.06236022 0.6331585 -0.7715061 -0.08653575 0.8786134 -0.4696276 -0.09754955 0.9904383 -0.0975492 -0.0938344 0.952718 0.2890042 -0.07591503 0.7707796 0.6325628 -0.04637855 0.4708895 0.8809722 -0.04637843 0.4708895 -0.8809723 -0.07591527 0.7707796 -0.6325629 -0.09383445 0.9527181 -0.2890042 -0.09754931 0.9904385 0.09754931 -0.08653551 0.8786135 0.4696276 -0.0623607 0.6331585 0.771506 -0.02857875 0.2901659 -0.9565495 0.02857893 0.2901663 0.9565494 0.06236064 0.6331585 -0.7715059 0.0865361 0.8786134 -0.4696275 0.09754985 0.9904383 -0.09754902 0.09383475 0.9527179 0.2890044 0.07591539 0.7707797 0.6325628 0.04637855 0.4708895 0.8809722 0.04637861 0.4708895 -0.8809723 0.07591527 0.7707797 -0.6325626 0.09383481 0.952718 -0.2890041 0.09754967 0.9904384 0.09754961 0.08653616 0.8786135 0.4696273 0.0623607 0.6331585 0.7715059 0.02857887 0.2901659 -0.9565495 0.08463841 0.2790154 0.9565494 0.1846855 0.6088266 -0.7715059 0.256282 0.8448489 -0.4696273 0.2889004 0.9523763 -0.09754931 0.2778977 0.9161055 0.2890044 0.224828 0.7411591 0.6325627 0.1373535 0.4527934 0.8809723 0.1373535 0.4527934 -0.8809723 0.2248281 0.7411592 -0.6325626 0.2778977 0.9161056 -0.2890042 0.2889003 0.9523763 0.09754979 0.2562823 0.8448489 0.4696272 0.1846855 0.6088266 0.771506 0.08463829 0.279015 -0.9565495 0.1374453 0.257142 0.9565494 0.2999132 0.5610977 -0.771506 0.4161799 0.7786169 -0.4696277 0.4691488 0.8777149 -0.09754943 0.4512812 0.8442877 0.2890043 0.3651015 0.6830559 0.6325627 0.2230499 0.4172968 0.8809723 0.2230498 0.4172968 -0.8809723 0.3651013 0.6830561 -0.6325626 0.4512811 0.8442878 -0.289004 0.4691488 0.8777148 0.09754943 0.4161796 0.7786174 0.469627 0.2999131 0.5610976 0.771506 0.1374452 0.2571417 -0.9565495 0.1849703 0.2253868 0.9565494 0.4036152 0.4918062 -0.771506 0.5600834 0.6824635 -0.4696276 0.6313679 0.7693235 -0.09754937 0.6073225 0.7400242 0.2890042 0.4913435 0.5987037 0.6325626 0.3001747 0.3657637 0.8809722 0.3001746 0.3657637 -0.8809723 0.4913436 0.5987037 -0.6325626 0.6073225 0.7400246 -0.2890038 0.6313679 0.7693235 0.09754949 0.5600835 0.6824637 0.4696274 0.403615 0.4918062 0.771506 0.18497 0.2253866 -0.9565495 0.2253869 0.1849702 0.9565495 0.4918064 0.4036149 -0.7715059 0.6824638 0.5600831 -0.4696276 0.7693238 0.6313675 -0.09754937 0.7400243 0.6073224 0.289004 0.5987039 0.4913432 0.6325626 0.3657639 0.3001745 0.8809722 0.3657639 0.3001744 -0.8809723 0.5987039 0.4913434 -0.6325625 0.7400247 0.6073223 -0.2890036 0.769324 0.6313674 0.0975492 0.6824638 0.5600835 0.4696273 0.4918063 0.4036149 0.771506 0.2253867 0.1849699 -0.9565495 0.2571421 0.1374452 0.9565494 0.5610979 0.2999128 -0.771506 0.7786172 0.4161794 -0.4696276 0.8777151 0.4691485 -0.09754925 0.8442876 0.4512812 0.2890045 0.6830563 0.365101 0.6325625 0.417297 0.2230497 0.8809723 0.4172969 0.2230496 -0.8809723 0.6830564 0.3651009 -0.6325626 0.844288 0.4512811 -0.2890037 0.8777152 0.4691484 0.09754914 0.7786173 0.4161792 0.4696274 0.5610978 0.2999128 0.771506 0.2571418 0.137445 -0.9565495 0.2790154 0.08463835 0.9565494 0.6088268 0.1846854 -0.7715059 0.8448489 0.2562817 -0.4696277 0.9523765 0.2889001 -0.0975492 0.9161055 0.2778975 0.2890046 0.7411593 0.2248278 0.6325624 0.4527937 0.1373533 0.8809722 0.4527934 0.1373533 -0.8809723 0.7411594 0.2248278 -0.6325625 0.9161057 0.2778974 -0.2890039 0.9523766 0.2888998 0.09754884 0.8448491 0.256282 0.4696272 0.6088265 0.1846851 0.771506 0.2790151 0.08463823 -0.9565496 0.2901663 0.02857869 0.9565494 0.6331587 0.06236028 -0.7715059 0.8786133 0.08653575 -0.4696276 0.9904385 0.09754925 -0.0975489 0.9527179 0.0938341 0.2890044 0.7707799 0.07591509 0.6325624 0.4708898 0.04637831 0.8809721 0.4708895 0.04637849 -0.8809723 0.7707799 0.07591491 -0.6325626 0.952718 0.09383445 -0.289004 0.9904385 0.09754937 0.09754902 0.8786136 0.08653581 0.4696274 0.6331585 0.06236046 0.771506 0.290166 0.02857875 -0.9565495 0.2901663 -0.02857893 0.9565494 0.6331588 -0.0623607 -0.7715058 0.8786133 -0.0865361 -0.4696274 0.9904384 -0.09754991 -0.09754902 0.9527179 -0.09383475 0.2890045 0.7707798 -0.07591539 0.6325625 0.4708897 -0.04637855 0.8809721 0.4708895 -0.04637861 -0.8809723 0.7707799 -0.07591527 -0.6325625 0.9527181 -0.09383481 -0.2890038 0.9904385 -0.09754967 0.09754925 0.8786135 -0.08653616 0.4696273 0.6331584 -0.0623607 0.771506 0.290166 -0.02857887 -0.9565496 0.2790154 -0.08463847 0.9565495 0.6088267 -0.184686 -0.7715058 0.8448489 -0.2562821 -0.4696273 0.9523763 -0.2889004 -0.09754931 0.9161055 -0.2778978 0.2890046 0.7411593 -0.2248283 0.6325625 0.4527936 -0.1373536 0.8809722 0.4527934 -0.1373533 -0.8809723 0.741159 -0.2248285 -0.6325626 0.9161056 -0.2778978 -0.2890039 0.9523764 -0.2889005 0.09754931 0.8448489 -0.2562823 0.4696272 0.6088265 -0.1846858 0.771506 0.2790151 -0.08463841 -0.9565494 0.257142 -0.1374454 0.9565494 0.5610978 -0.2999134 -0.7715058 0.778617 -0.4161798 -0.4696274 0.8777151 -0.4691487 -0.09754914 0.8442876 -0.4512813 0.2890045 0.6830561 -0.3651013 0.6325626 0.4172969 -0.22305 0.8809722 0.4172969 -0.2230499 -0.8809722 0.683056 -0.3651013 -0.6325626 0.8442879 -0.4512813 -0.2890039 0.877715 -0.4691488 0.09754931 0.7786173 -0.4161797 0.469627 0.5610978 -0.2999132 0.771506 0.2571417 -0.1374452 -0.9565495 0.2253867 -0.1849704 0.9565494 0.4918063 -0.4036155 -0.7715058 0.6824639 -0.5600835 -0.4696271 0.7693236 -0.6313679 -0.0975489 0.7400242 -0.6073225 0.2890044 0.5987038 -0.4913434 0.6325626 0.3657638 -0.3001748 0.8809722 0.3657637 -0.3001748 -0.8809722 0.5987033 -0.4913436 -0.6325629 0.7400243 -0.6073226 -0.2890039 0.7693234 -0.6313682 0.09754914 0.6824637 -0.5600836 0.4696271 0.4918062 -0.4036153 0.7715059 0.2253865 -0.1849702 -0.9565495 0.1849702 -0.225387 0.9565493 0.4036148 -0.4918068 -0.7715058 0.5600834 -0.682464 -0.4696271 0.6313677 -0.7693238 -0.0975489 0.6073223 -0.7400243 0.2890046 0.4913432 -0.5987037 0.6325628 0.3001746 -0.365764 0.8809722 0.3001745 -0.3657639 -0.8809722 0.4913432 -0.5987038 -0.6325628 0.6073222 -0.7400246 -0.289004 0.6313676 -0.7693239 0.09754872 0.5600835 -0.6824639 0.469627 0.4036149 -0.4918066 0.7715058 0.18497 -0.2253867 -0.9565495 0.1374452 -0.2571423 0.9565494 0.2999128 -0.5610982 -0.7715057 0.4161795 -0.7786174 -0.4696272 0.4691485 -0.8777153 -0.09754872 0.451281 -0.8442878 0.2890046 0.365101 -0.6830561 0.6325626 0.2230498 -0.4172971 0.8809722 0.2230497 -0.4172971 -0.8809721 0.3651006 -0.6830562 -0.632563 0.4512811 -0.8442878 -0.2890042 0.4691482 -0.8777154 0.09754848 0.4161796 -0.7786173 0.4696272 0.2999128 -0.5610982 0.7715058 0.137445 -0.2571419 -0.9565495 0.08463829 -0.2790156 0.9565494 0.1846853 -0.6088269 -0.7715057 0.2562821 -0.844849 -0.4696273 0.2888998 -0.9523766 -0.09754848 0.2778972 -0.9161056 0.2890045 0.224828 -0.741159 0.6325628 0.1373533 -0.4527938 0.8809722 0.1373533 -0.4527937 -0.8809721 0.2248278 -0.7411589 -0.632563 0.2778975 -0.9161058 -0.2890039 0.2889002 -0.9523765 0.09754884 0.256282 -0.844849 0.4696272 0.1846854 -0.6088269 0.7715058 0.08463817 -0.2790152 -0.9565495 0.02857881 -0.2901664 0.9565494 0.06236034 -0.6331588 -0.7715057 0.08653581 -0.8786136 -0.4696273 0.09754961 -0.9904385 -0.0975489 0.09383445 -0.952718 0.2890042 0.07591503 -0.7707795 0.6325629 0.04637861 -0.4708898 0.8809721 0.04637849 -0.4708896 -0.8809722 0.07591491 -0.7707796 -0.6325629 0.09383416 -0.9527181 -0.2890042 0.09754937 -0.9904385 0.09754866 0.08653551 -0.8786137 0.469627 0.06236046 -0.6331588 0.7715057 0.02857881 -0.2901661 -0.9565495 -0.02857905 -0.2901664 0.9565494 -0.06236106 -0.6331588 -0.7715057 -0.08653616 -0.8786136 -0.469627 -0.09754991 -0.9904385 -0.09754872 -0.09383475 -0.9527179 0.2890044 -0.07591539 -0.7707795 0.6325629 -0.04637855 -0.4708897 0.8809722 -0.04637873 -0.4708896 -0.8809722 -0.07591563 -0.7707793 -0.632563 -0.09383451 -0.9527181 -0.2890037 -0.09754973 -0.9904385 0.09754896 -0.08653587 -0.8786135 0.4696273 -0.06236106 -0.6331588 0.7715056 -0.02857893 -0.2901661 -0.9565495 -0.08463847 -0.2790155 0.9565494 -0.1846859 -0.6088268 -0.7715058 -0.2562822 -0.8448489 -0.4696273 -0.2889001 -0.9523764 -0.09754896 -0.2778975 -0.9161056 0.289004 -0.2248281 -0.7411589 0.6325629 -0.1373535 -0.4527935 0.8809722 -0.1373534 -0.4527937 -0.8809722 -0.2248282 -0.7411589 -0.6325631 -0.2778981 -0.9161054 -0.2890043 -0.2889006 -0.9523764 0.0975486 -0.2562827 -0.8448489 0.469627 -0.1846857 -0.608827 0.7715056 -0.08463841 -0.2790151 -0.9565494 -0.1374455 -0.2571421 0.9565494 -0.2999134 -0.5610978 -0.7715058 -0.4161795 -0.7786173 -0.469627 -0.4691487 -0.8777151 -0.09754866 -0.4512813 -0.8442876 0.2890046 -0.365101 -0.6830559 0.6325629 -0.2230499 -0.417297 0.8809722 -0.22305 -0.417297 -0.8809722 -0.3651011 -0.6830558 -0.6325631 -0.4512814 -0.8442877 -0.2890042 -0.4691486 -0.8777152 0.09754866 -0.4161799 -0.7786173 0.4696269 -0.2999132 -0.561098 0.7715057 -0.1374452 -0.2571418 -0.9565494 -0.1849704 -0.2253869 0.9565494 -0.4036154 -0.4918065 -0.7715057 -0.5600838 -0.6824638 -0.469627 -0.6313679 -0.7693236 -0.09754896 -0.6073224 -0.7400241 0.2890046 -0.4913434 -0.5987035 0.632563 -0.3001747 -0.3657638 0.8809722 -0.3001749 -0.3657639 -0.8809721 -0.4913436 -0.5987032 -0.6325632 -0.6073225 -0.7400245 -0.289004 -0.6313678 -0.7693238 0.09754866 -0.5600839 -0.6824638 0.4696268 -0.4036155 -0.4918063 0.7715055 -0.1849702 -0.2253867 -0.9565495 -0.2253871 -0.1849703 0.9565494 -0.4918068 -0.4036148 -0.7715057 -0.6824639 -0.5600834 -0.4696271 -0.7693238 -0.6313677 -0.09754842 -0.7400243 -0.6073223 0.2890049 -0.5987036 -0.4913431 0.6325631 -0.3657638 -0.3001746 0.8809722 -0.365764 -0.3001745 -0.8809721 -0.5987036 -0.491343 -0.6325632 -0.7400245 -0.6073225 -0.289004 -0.769324 -0.6313673 0.09754884 -0.682464 -0.5600835 0.4696269 -0.4918069 -0.4036151 0.7715055 -0.2253867 -0.1849701 -0.9565494 -0.2571423 -0.1374453 0.9565493 -0.5610983 -0.2999129 -0.7715057 -0.7786172 -0.4161795 -0.4696274 -0.8777153 -0.4691485 -0.09754842 -0.8442876 -0.451281 0.289005 -0.6830559 -0.3651009 0.6325631 -0.417297 -0.2230497 0.8809721 -0.4172971 -0.2230498 -0.880972 -0.6830559 -0.3651006 -0.6325632 -0.844288 -0.451281 -0.2890042 -0.8777152 -0.4691486 0.0975483 -0.7786176 -0.4161795 0.4696268 -0.5610985 -0.299913 0.7715055 -0.257142 -0.1374451 -0.9565494 -0.2790156 -0.08463829 0.9565493 -0.608827 -0.1846851 -0.7715057 -0.844849 -0.2562821 -0.4696273 -0.9523764 -0.2889002 -0.09754836 -0.9161052 -0.2778974 0.2890053 -0.7411587 -0.224828 0.6325632 -0.4527935 -0.1373533 0.8809721 -0.4527938 -0.1373533 -0.880972 -0.7411587 -0.2248277 -0.6325634 -0.9161057 -0.2778971 -0.2890045 -0.9523766 -0.2889002 0.09754836 -0.8448494 -0.2562819 0.4696264 -0.6088272 -0.1846855 0.7715055 -0.2790152 -0.08463829 -0.9565495 -0.2901662 -0.02858024 0.9565494 -0.6331583 -0.06236386 -0.7715058 -0.8786134 -0.08653831 -0.4696271 -0.9904382 -0.09755301 -0.0975483 -0.9527178 -0.09383744 0.289004 -0.7707797 -0.0759173 0.6325624 -0.4708893 -0.04638051 0.8809722 -0.4708893 -0.04638081 -0.8809722 -0.7707787 -0.07591897 -0.6325635 -0.9527176 -0.09383833 -0.2890045 -0.9904379 -0.09755402 0.09754961 -0.8786128 -0.08653998 0.4696279 -0.6331583 -0.0623638 0.7715059 -0.290166 -0.02857995 -0.9565495</float_array>
          <technique_common>
            <accessor source="#Sphere-mesh-normals-array" count="960" stride="3">
              <param name="X" type="float"/>
              <param name="Y" type="float"/>
              <param name="Z" type="float"/>
            </accessor>
          </technique_common>
        </source>
        <vertices id="Sphere-mesh-vertices">
          <input semantic="POSITION" source="#Sphere-mesh-positions"/>
        </vertices>
        <polylist material="Material_001-material" count="960">
          <input semantic="VERTEX" source="#Sphere-mesh-vertices" offset="0"/>
          <input semantic="NORMAL" source="#Sphere-mesh-normals" offset="1"/>
          <vcount>3 3 3 3 3 3 3 3 3 3 3 3 3 3 3 3 3 3 3 3 3 3 3 3 3 3 3 3 3 3 3 3 3 3 3 3 3 3 3 3 3 3 3 3 3 3 3 3 3 3 3 3 3 3 3 3 3 3 3 3 3 3 3 3 3 3 3 3 3 3 3 3 3 3 3 3 3 3 3 3 3 3 3 3 3 3 3 3 3 3 3 3 3 3 3 3 3 3 3 3 3 3 3 3 3 3 3 3 3 3 3 3 3 3 3 3 3 3 3 3 3 3 3 3 3 3 3 3 3 3 3 3 3 3 3 3 3 3 3 3 3 3 3 3 3 3 3 3 3 3 3 3 3 3 3 3 3 3 3 3 3 3 3 3 3 3 3 3 3 3 3 3 3 3 3 3 3 3 3 3 3 3 3 3 3 3 3 3 3 3 3 3 3 3 3 3 3 3 3 3 3 3 3 3 3 3 3 3 3 3 3 3 3 3 3 3 3 3 3 3 3 3 3 3 3 3 3 3 3 3 3 3 3 3 3 3 3 3 3 3 3 3 3 3 3 3 3 3 3 3 3 3 3 3 3 3 3 3 3 3 3 3 3 3 3 3 3 3 3 3 3 3 3 3 3 3 3 3 3 3 3 3 3 3 3 3 3 3 3 3 3 3 3 3 3 3 3 3 3 3 3 3 3 3 3 3 3 3 3 3 3 3 3 3 3 3 3 3 3 3 3 3 3 3 3 3 3 3 3 3 3 3 3 3 3 3 3 3 3 3 3 3 3 3 3 3 3 3 3 3 3 3 3 3 3 3 3 3 3 3 3 3 3 3 3 3 3 3 3 3 3 3 3 3 3 3 3 3 3 3 3 3 3 3 3 3 3 3 3 3 3 3 3 3 3 3 3 3 3 3 3 3 3 3 3 3 3 3 3 3 3 3 3 3 3 3 3 3 3 3 3 3 3 3 3 3 3 3 3 3 3 3 3 3 3 3 3 3 3 3 3 3 3 3 3 3 3 3 3 3 3 3 3 3 3 3 3 3 3 3 3 3 3 3 3 3 3 3 3 3 3 3 3 3 3 3 3 3 3 3 3 3 3 3 3 3 3 3 3 3 3 3 3 3 3 3 3 3 3 3 3 3 3 3 3 3 3 3 3 3 3 3 3 3 3 3 3 3 3 3 3 3 3 3 3 3 3 3 3 3 3 3 3 3 3 3 3 3 3 3 3 3 3 3 3 3 3 3 3 3 3 3 3 3 3 3 3 3 3 3 3 3 3 3 3 3 3 3 3 3 3 3 3 3 3 3 3 3 3 3 3 3 3 3 3 3 3 3 3 3 3 3 3 3 3 3 3 3 3 3 3 3 3 3 3 3 3 3 3 3 3 3 3 3 3 3 3 3 3 3 3 3 3 3 3 3 3 3 3 3 3 3 3 3 3 3 3 3 3 3 3 3 3 3 3 3 3 3 3 3 3 3 3 3 3 3 3 3 3 3 3 3 3 3 3 3 3 3 3 3 3 3 3 3 3 3 3 3 3 3 3 3 3 3 3 3 3 3 3 3 3 3 3 3 3 3 3 3 3 3 3 3 3 3 3 3 3 3 3 3 3 3 3 3 3 3 3 3 3 3 3 3 3 3 3 3 3 3 3 3 3 3 3 3 3 3 3 3 3 3 3 3 3 3 3 3 3 3 3 3 3 3 3 3 3 3 3 3 3 3 3 3 3 3 3 3 3 3 3 3 3 3 3 3 3 3 3 3 3 3 3 3 3 3 3 3 3 3 3 3 3 3 3 3 3 3 3 3 3 3 3 3 3 3 3 3 3 3 3 3 3 3 3 3 3 3 3 3 3 3 3 3 3 3 3 3 3 3 3 3 3 3 3 3 3 3 3 3 3 3 3 3 3 3 3 3 3 3 3 3 3 3 3 3 3 3 3 3 3 3 3 3 3 3 3 3 3 3 3 3 3 3 3 3 3 3 3 3 3 3 3 3 3 3 3 3 3 3 3 3 3 3 3 3 3 3 3 3 3 3 3 3 3 3 3 3 3 3 3 3 3 3 3 3 3 3 3 3 3 3 3 3 3 3 3 3 3 3 3 3 3 3 3 3 3 3 3 3 3 3 3 3 3 3 3 3 3 3 3 3 3 3 3 3 3 3 3 3 3 3 </vcount>
          <p>5 0 20 0 21 0 3 1 18 1 19 1 1 2 16 2 17 2 13 3 12 3 27 3 11 4 10 4 25 4 9 5 8 5 23 5 6 6 21 6 22 6 4 7 19 7 20 7 2 8 17 8 18 8 14 9 13 9 28 9 0 10 15 10 16 10 12 11 11 11 26 11 10 12 9 12 24 12 7 13 22 13 23 13 15 14 30 14 31 14 26 15 41 15 42 15 25 16 24 16 39 16 22 17 37 17 38 17 20 18 35 18 36 18 19 19 18 19 33 19 16 20 31 20 32 20 27 21 42 21 43 21 25 22 40 22 41 22 24 23 23 23 38 23 22 24 21 24 36 24 20 25 19 25 34 25 18 26 17 26 32 26 29 27 28 27 43 27 30 28 45 28 46 28 42 29 41 29 56 29 39 30 54 30 55 30 38 31 37 31 52 31 35 32 50 32 51 32 33 33 48 33 49 33 31 34 46 34 47 34 43 35 42 35 57 35 41 36 40 36 55 36 39 37 38 37 53 37 37 38 36 38 51 38 35 39 34 39 49 39 32 40 47 40 48 40 43 41 58 41 59 41 45 42 60 42 61 42 57 43 56 43 71 43 54 44 69 44 70 44 52 45 67 45 68 45 50 46 65 46 66 46 48 47 63 47 64 47 46 48 61 48 62 48 57 49 72 49 73 49 56 50 55 50 70 50 53 51 68 51 69 51 52 52 51 52 66 52 50 53 49 53 64 53 47 54 62 54 63 54 59 55 58 55 73 55 60 56 75 56 76 56 72 57 71 57 86 57 70 58 69 58 84 58 67 59 82 59 83 59 65 60 80 60 81 60 63 61 78 61 79 61 61 62 76 62 77 62 73 63 72 63 87 63 71 64 70 64 85 64 68 65 83 65 84 65 67 66 66 66 81 66 64 67 79 67 80 67 62 68 77 68 78 68 74 69 73 69 88 69 75 70 90 70 91 70 87 71 86 71 101 71 85 72 84 72 99 72 82 73 97 73 98 73 80 74 95 74 96 74 78 75 93 75 94 75 76 76 91 76 92 76 88 77 87 77 102 77 86 78 85 78 100 78 83 79 98 79 99 79 82 80 81 80 96 80 79 81 94 81 95 81 77 82 92 82 93 82 89 83 88 83 103 83 90 84 105 84 106 84 102 85 101 85 116 85 100 86 99 86 114 86 97 87 112 87 113 87 95 88 110 88 111 88 93 89 108 89 109 89 91 90 106 90 107 90 103 91 102 91 117 91 101 92 100 92 115 92 98 93 113 93 114 93 97 94 96 94 111 94 94 95 109 95 110 95 92 96 107 96 108 96 104 97 103 97 118 97 106 98 105 98 120 98 117 99 116 99 131 99 115 100 114 100 129 100 112 101 127 101 128 101 110 102 125 102 126 102 108 103 123 103 124 103 107 104 106 104 121 104 118 105 117 105 132 105 115 106 130 106 131 106 113 107 128 107 129 107 112 108 111 108 126 108 109 109 124 109 125 109 108 110 107 110 122 110 119 111 118 111 133 111 120 112 135 112 136 112 132 113 131 113 146 113 130 114 129 114 144 114 127 115 142 115 143 115 125 116 140 116 141 116 123 117 138 117 139 117 121 118 136 118 137 118 132 119 147 119 148 119 131 120 130 120 145 120 128 121 143 121 144 121 127 122 126 122 141 122 124 123 139 123 140 123 123 124 122 124 137 124 134 125 133 125 148 125 135 126 150 126 151 126 147 127 146 127 161 127 145 128 144 128 159 128 142 129 157 129 158 129 140 130 155 130 156 130 139 131 138 131 153 131 136 132 151 132 152 132 147 133 162 133 163 133 145 134 160 134 161 134 143 135 158 135 159 135 142 136 141 136 156 136 139 137 154 137 155 137 137 138 152 138 153 138 149 139 148 139 163 139 150 140 165 140 166 140 162 141 161 141 176 141 160 142 159 142 174 142 157 143 172 143 173 143 155 144 170 144 171 144 153 145 168 145 169 145 151 146 166 146 167 146 163 147 162 147 177 147 161 148 160 148 175 148 158 149 173 149 174 149 157 150 156 150 171 150 154 151 169 151 170 151 152 152 167 152 168 152 164 153 163 153 178 153 165 154 180 154 181 154 177 155 176 155 191 155 175 156 174 156 189 156 172 157 187 157 188 157 170 158 185 158 186 158 169 159 168 159 183 159 166 160 181 160 182 160 178 161 177 161 192 161 175 162 190 162 191 162 173 163 188 163 189 163 172 164 171 164 186 164 169 165 184 165 185 165 167 166 182 166 183 166 179 167 178 167 193 167 180 168 195 168 196 168 192 169 191 169 206 169 190 170 189 170 204 170 187 171 202 171 203 171 186 172 185 172 200 172 183 173 198 173 199 173 181 174 196 174 197 174 192 175 207 175 208 175 191 176 190 176 205 176 188 177 203 177 204 177 187 178 186 178 201 178 184 179 199 179 200 179 182 180 197 180 198 180 194 181 193 181 208 181 196 182 195 182 210 182 207 183 206 183 221 183 205 184 204 184 219 184 202 185 217 185 218 185 201 186 200 186 215 186 198 187 213 187 214 187 196 188 211 188 212 188 207 189 222 189 223 189 206 190 205 190 220 190 203 191 218 191 219 191 202 192 201 192 216 192 199 193 214 193 215 193 197 194 212 194 213 194 209 195 208 195 223 195 210 196 225 196 226 196 222 197 221 197 236 197 220 198 219 198 234 198 217 199 232 199 233 199 216 200 215 200 230 200 213 201 228 201 229 201 211 202 226 202 227 202 222 203 237 203 238 203 221 204 220 204 235 204 218 205 233 205 234 205 217 206 216 206 231 206 214 207 229 207 230 207 212 208 227 208 228 208 224 209 223 209 238 209 225 210 240 210 241 210 237 211 236 211 251 211 235 212 234 212 249 212 232 213 247 213 248 213 231 214 230 214 245 214 228 215 243 215 244 215 226 216 241 216 242 216 237 217 252 217 253 217 236 218 235 218 250 218 233 219 248 219 249 219 232 220 231 220 246 220 229 221 244 221 245 221 227 222 242 222 243 222 239 223 238 223 253 223 240 224 255 224 256 224 252 225 251 225 266 225 250 226 249 226 264 226 247 227 262 227 263 227 246 228 245 228 260 228 243 229 258 229 259 229 241 230 256 230 257 230 252 231 267 231 268 231 251 232 250 232 265 232 248 233 263 233 264 233 247 234 246 234 261 234 244 235 259 235 260 235 242 236 257 236 258 236 254 237 253 237 268 237 255 238 270 238 271 238 267 239 266 239 281 239 265 240 264 240 279 240 262 241 277 241 278 241 261 242 260 242 275 242 258 243 273 243 274 243 256 244 271 244 272 244 267 245 282 245 283 245 266 246 265 246 280 246 263 247 278 247 279 247 262 248 261 248 276 248 259 249 274 249 275 249 257 250 272 250 273 250 268 251 283 251 284 251 270 252 285 252 286 252 282 253 281 253 296 253 280 254 279 254 294 254 278 255 277 255 292 255 276 256 275 256 290 256 273 257 288 257 289 257 271 258 286 258 287 258 282 259 297 259 298 259 281 260 280 260 295 260 278 261 293 261 294 261 276 262 291 262 292 262 274 263 289 263 290 263 272 264 287 264 288 264 284 265 283 265 298 265 285 266 300 266 301 266 297 267 296 267 311 267 295 268 294 268 309 268 293 269 292 269 307 269 291 270 290 270 305 270 288 271 303 271 304 271 286 272 301 272 302 272 297 273 312 273 313 273 296 274 295 274 310 274 293 275 308 275 309 275 291 276 306 276 307 276 289 277 304 277 305 277 287 278 302 278 303 278 299 279 298 279 313 279 301 280 300 280 315 280 312 281 311 281 326 281 309 282 324 282 325 282 307 283 322 283 323 283 306 284 305 284 320 284 303 285 318 285 319 285 301 286 316 286 317 286 312 287 327 287 328 287 311 288 310 288 325 288 308 289 323 289 324 289 307 290 306 290 321 290 305 291 304 291 319 291 303 292 302 292 317 292 314 293 313 293 328 293 316 294 315 294 331 294 327 295 326 295 342 295 324 296 340 296 341 296 322 297 338 297 339 297 320 298 336 298 337 298 318 299 334 299 335 299 316 300 332 300 333 300 327 301 343 301 344 301 326 302 325 302 341 302 324 303 323 303 339 303 322 304 321 304 337 304 320 305 319 305 335 305 318 306 317 306 333 306 329 307 328 307 344 307 331 308 346 308 347 308 343 309 342 309 357 309 340 310 355 310 356 310 338 311 353 311 354 311 336 312 351 312 352 312 334 313 349 313 350 313 332 314 347 314 348 314 343 315 358 315 359 315 342 316 341 316 356 316 340 317 339 317 354 317 338 318 337 318 352 318 336 319 335 319 350 319 334 320 333 320 348 320 345 321 344 321 359 321 347 322 346 322 361 322 358 323 357 323 372 323 355 324 370 324 371 324 353 325 368 325 369 325 351 326 366 326 367 326 349 327 364 327 365 327 347 328 362 328 363 328 358 329 373 329 374 329 357 330 356 330 371 330 355 331 354 331 369 331 353 332 352 332 367 332 351 333 350 333 365 333 349 334 348 334 363 334 360 335 359 335 374 335 361 336 376 336 377 336 373 337 372 337 387 337 370 338 385 338 386 338 368 339 383 339 384 339 366 340 381 340 382 340 364 341 379 341 380 341 362 342 377 342 378 342 373 343 388 343 389 343 372 344 371 344 386 344 370 345 369 345 384 345 368 346 367 346 382 346 366 347 365 347 380 347 364 348 363 348 378 348 375 349 374 349 389 349 377 350 376 350 391 350 388 351 387 351 402 351 385 352 400 352 401 352 383 353 398 353 399 353 381 354 396 354 397 354 379 355 394 355 395 355 377 356 392 356 393 356 388 357 403 357 404 357 387 358 386 358 401 358 385 359 384 359 399 359 383 360 382 360 397 360 381 361 380 361 395 361 379 362 378 362 393 362 389 363 404 363 405 363 391 364 406 364 407 364 403 365 402 365 417 365 400 366 415 366 416 366 398 367 413 367 414 367 396 368 411 368 412 368 394 369 409 369 410 369 392 370 407 370 408 370 403 371 418 371 419 371 402 372 401 372 416 372 400 373 399 373 414 373 397 374 412 374 413 374 396 375 395 375 410 375 394 376 393 376 408 376 405 377 404 377 419 377 407 378 406 378 421 378 418 379 417 379 432 379 415 380 430 380 431 380 414 381 413 381 428 381 411 382 426 382 427 382 409 383 424 383 425 383 407 384 422 384 423 384 418 385 433 385 434 385 417 386 416 386 431 386 415 387 414 387 429 387 412 388 427 388 428 388 411 389 410 389 425 389 409 390 408 390 423 390 419 391 434 391 435 391 422 392 421 392 436 392 433 393 432 393 447 393 430 394 445 394 446 394 429 395 428 395 443 395 427 396 426 396 441 396 424 397 439 397 440 397 422 398 437 398 438 398 433 399 448 399 449 399 432 400 431 400 446 400 429 401 444 401 445 401 427 402 442 402 443 402 426 403 425 403 440 403 424 404 423 404 438 404 434 405 449 405 450 405 437 406 436 406 452 406 448 407 447 407 463 407 445 408 461 408 462 408 444 409 443 409 459 409 442 410 441 410 457 410 439 411 455 411 456 411 437 412 453 412 454 412 448 413 464 413 465 413 447 414 446 414 462 414 445 415 444 415 460 415 442 416 458 416 459 416 441 417 440 417 456 417 439 418 438 418 454 418 449 419 465 419 466 419 453 420 452 420 467 420 464 421 463 421 478 421 461 422 476 422 477 422 460 423 459 423 474 423 458 424 457 424 472 424 455 425 470 425 471 425 453 426 468 426 469 426 464 427 479 427 480 427 463 428 462 428 477 428 461 429 460 429 475 429 458 430 473 430 474 430 457 431 456 431 471 431 455 432 454 432 469 432 465 433 480 433 481 433 330 434 14 434 29 434 0 435 451 435 15 435 330 436 29 436 44 436 15 437 451 437 30 437 330 438 44 438 59 438 30 439 451 439 45 439 330 440 59 440 74 440 45 441 451 441 60 441 330 442 74 442 89 442 60 443 451 443 75 443 330 444 89 444 104 444 75 445 451 445 90 445 330 446 104 446 119 446 90 447 451 447 105 447 330 448 119 448 134 448 105 449 451 449 120 449 330 450 134 450 149 450 120 451 451 451 135 451 330 452 149 452 164 452 135 453 451 453 150 453 330 454 164 454 179 454 150 455 451 455 165 455 330 456 179 456 194 456 165 457 451 457 180 457 330 458 194 458 209 458 180 459 451 459 195 459 330 460 209 460 224 460 195 461 451 461 210 461 330 462 224 462 239 462 210 463 451 463 225 463 330 464 239 464 254 464 225 465 451 465 240 465 330 466 254 466 269 466 240 467 451 467 255 467 330 468 269 468 284 468 255 469 451 469 270 469 330 470 284 470 299 470 270 471 451 471 285 471 330 472 299 472 314 472 285 473 451 473 300 473 330 474 314 474 329 474 300 475 451 475 315 475 330 476 329 476 345 476 315 477 451 477 331 477 330 478 345 478 360 478 331 479 451 479 346 479 330 480 360 480 375 480 346 481 451 481 361 481 330 482 375 482 390 482 361 483 451 483 376 483 330 484 390 484 405 484 376 485 451 485 391 485 330 486 405 486 420 486 391 487 451 487 406 487 330 488 420 488 435 488 406 489 451 489 421 489 330 490 435 490 450 490 421 491 451 491 436 491 330 492 450 492 466 492 436 493 451 493 452 493 330 494 466 494 481 494 452 495 451 495 467 495 468 496 467 496 0 496 478 497 11 497 12 497 476 498 9 498 10 498 474 499 7 499 8 499 473 500 472 500 5 500 471 501 470 501 3 501 330 502 481 502 14 502 469 503 468 503 1 503 479 504 12 504 13 504 467 505 451 505 0 505 477 506 10 506 11 506 475 507 8 507 9 507 474 508 473 508 6 508 472 509 471 509 4 509 470 510 469 510 2 510 480 511 13 511 14 511 6 512 5 512 21 512 4 513 3 513 19 513 2 514 1 514 17 514 28 515 13 515 27 515 26 516 11 516 25 516 24 517 9 517 23 517 7 518 6 518 22 518 5 519 4 519 20 519 3 520 2 520 18 520 29 521 14 521 28 521 1 522 0 522 16 522 27 523 12 523 26 523 25 524 10 524 24 524 8 525 7 525 23 525 16 526 15 526 31 526 27 527 26 527 42 527 40 528 25 528 39 528 23 529 22 529 38 529 21 530 20 530 36 530 34 531 19 531 33 531 17 532 16 532 32 532 28 533 27 533 43 533 26 534 25 534 41 534 39 535 24 535 38 535 37 536 22 536 36 536 35 537 20 537 34 537 33 538 18 538 32 538 44 539 29 539 43 539 31 540 30 540 46 540 57 541 42 541 56 541 40 542 39 542 55 542 53 543 38 543 52 543 36 544 35 544 51 544 34 545 33 545 49 545 32 546 31 546 47 546 58 547 43 547 57 547 56 548 41 548 55 548 54 549 39 549 53 549 52 550 37 550 51 550 50 551 35 551 49 551 33 552 32 552 48 552 44 553 43 553 59 553 46 554 45 554 61 554 72 555 57 555 71 555 55 556 54 556 70 556 53 557 52 557 68 557 51 558 50 558 66 558 49 559 48 559 64 559 47 560 46 560 62 560 58 561 57 561 73 561 71 562 56 562 70 562 54 563 53 563 69 563 67 564 52 564 66 564 65 565 50 565 64 565 48 566 47 566 63 566 74 567 59 567 73 567 61 568 60 568 76 568 87 569 72 569 86 569 85 570 70 570 84 570 68 571 67 571 83 571 66 572 65 572 81 572 64 573 63 573 79 573 62 574 61 574 77 574 88 575 73 575 87 575 86 576 71 576 85 576 69 577 68 577 84 577 82 578 67 578 81 578 65 579 64 579 80 579 63 580 62 580 78 580 89 581 74 581 88 581 76 582 75 582 91 582 102 583 87 583 101 583 100 584 85 584 99 584 83 585 82 585 98 585 81 586 80 586 96 586 79 587 78 587 94 587 77 588 76 588 92 588 103 589 88 589 102 589 101 590 86 590 100 590 84 591 83 591 99 591 97 592 82 592 96 592 80 593 79 593 95 593 78 594 77 594 93 594 104 595 89 595 103 595 91 596 90 596 106 596 117 597 102 597 116 597 115 598 100 598 114 598 98 599 97 599 113 599 96 600 95 600 111 600 94 601 93 601 109 601 92 602 91 602 107 602 118 603 103 603 117 603 116 604 101 604 115 604 99 605 98 605 114 605 112 606 97 606 111 606 95 607 94 607 110 607 93 608 92 608 108 608 119 609 104 609 118 609 121 610 106 610 120 610 132 611 117 611 131 611 130 612 115 612 129 612 113 613 112 613 128 613 111 614 110 614 126 614 109 615 108 615 124 615 122 616 107 616 121 616 133 617 118 617 132 617 116 618 115 618 131 618 114 619 113 619 129 619 127 620 112 620 126 620 110 621 109 621 125 621 123 622 108 622 122 622 134 623 119 623 133 623 121 624 120 624 136 624 147 625 132 625 146 625 145 626 130 626 144 626 128 627 127 627 143 627 126 628 125 628 141 628 124 629 123 629 139 629 122 630 121 630 137 630 133 631 132 631 148 631 146 632 131 632 145 632 129 633 128 633 144 633 142 634 127 634 141 634 125 635 124 635 140 635 138 636 123 636 137 636 149 637 134 637 148 637 136 638 135 638 151 638 162 639 147 639 161 639 160 640 145 640 159 640 143 641 142 641 158 641 141 642 140 642 156 642 154 643 139 643 153 643 137 644 136 644 152 644 148 645 147 645 163 645 146 646 145 646 161 646 144 647 143 647 159 647 157 648 142 648 156 648 140 649 139 649 155 649 138 650 137 650 153 650 164 651 149 651 163 651 151 652 150 652 166 652 177 653 162 653 176 653 175 654 160 654 174 654 158 655 157 655 173 655 156 656 155 656 171 656 154 657 153 657 169 657 152 658 151 658 167 658 178 659 163 659 177 659 176 660 161 660 175 660 159 661 158 661 174 661 172 662 157 662 171 662 155 663 154 663 170 663 153 664 152 664 168 664 179 665 164 665 178 665 166 666 165 666 181 666 192 667 177 667 191 667 190 668 175 668 189 668 173 669 172 669 188 669 171 670 170 670 186 670 184 671 169 671 183 671 167 672 166 672 182 672 193 673 178 673 192 673 176 674 175 674 191 674 174 675 173 675 189 675 187 676 172 676 186 676 170 677 169 677 185 677 168 678 167 678 183 678 194 679 179 679 193 679 181 680 180 680 196 680 207 681 192 681 206 681 205 682 190 682 204 682 188 683 187 683 203 683 201 684 186 684 200 684 184 685 183 685 199 685 182 686 181 686 197 686 193 687 192 687 208 687 206 688 191 688 205 688 189 689 188 689 204 689 202 690 187 690 201 690 185 691 184 691 200 691 183 692 182 692 198 692 209 693 194 693 208 693 211 694 196 694 210 694 222 695 207 695 221 695 220 696 205 696 219 696 203 697 202 697 218 697 216 698 201 698 215 698 199 699 198 699 214 699 197 700 196 700 212 700 208 701 207 701 223 701 221 702 206 702 220 702 204 703 203 703 219 703 217 704 202 704 216 704 200 705 199 705 215 705 198 706 197 706 213 706 224 707 209 707 223 707 211 708 210 708 226 708 237 709 222 709 236 709 235 710 220 710 234 710 218 711 217 711 233 711 231 712 216 712 230 712 214 713 213 713 229 713 212 714 211 714 227 714 223 715 222 715 238 715 236 716 221 716 235 716 219 717 218 717 234 717 232 718 217 718 231 718 215 719 214 719 230 719 213 720 212 720 228 720 239 721 224 721 238 721 226 722 225 722 241 722 252 723 237 723 251 723 250 724 235 724 249 724 233 725 232 725 248 725 246 726 231 726 245 726 229 727 228 727 244 727 227 728 226 728 242 728 238 729 237 729 253 729 251 730 236 730 250 730 234 731 233 731 249 731 247 732 232 732 246 732 230 733 229 733 245 733 228 734 227 734 243 734 254 735 239 735 253 735 241 736 240 736 256 736 267 737 252 737 266 737 265 738 250 738 264 738 248 739 247 739 263 739 261 740 246 740 260 740 244 741 243 741 259 741 242 742 241 742 257 742 253 743 252 743 268 743 266 744 251 744 265 744 249 745 248 745 264 745 262 746 247 746 261 746 245 747 244 747 260 747 243 748 242 748 258 748 269 749 254 749 268 749 256 750 255 750 271 750 282 751 267 751 281 751 280 752 265 752 279 752 263 753 262 753 278 753 276 754 261 754 275 754 259 755 258 755 274 755 257 756 256 756 272 756 268 757 267 757 283 757 281 758 266 758 280 758 264 759 263 759 279 759 277 760 262 760 276 760 260 761 259 761 275 761 258 762 257 762 273 762 269 763 268 763 284 763 271 764 270 764 286 764 297 765 282 765 296 765 295 766 280 766 294 766 293 767 278 767 292 767 291 768 276 768 290 768 274 769 273 769 289 769 272 770 271 770 287 770 283 771 282 771 298 771 296 772 281 772 295 772 279 773 278 773 294 773 277 774 276 774 292 774 275 775 274 775 290 775 273 776 272 776 288 776 299 777 284 777 298 777 286 778 285 778 301 778 312 779 297 779 311 779 310 780 295 780 309 780 308 781 293 781 307 781 306 782 291 782 305 782 289 783 288 783 304 783 287 784 286 784 302 784 298 785 297 785 313 785 311 786 296 786 310 786 294 787 293 787 309 787 292 788 291 788 307 788 290 789 289 789 305 789 288 790 287 790 303 790 314 791 299 791 313 791 316 792 301 792 315 792 327 793 312 793 326 793 310 794 309 794 325 794 308 795 307 795 323 795 321 796 306 796 320 796 304 797 303 797 319 797 302 798 301 798 317 798 313 799 312 799 328 799 326 800 311 800 325 800 309 801 308 801 324 801 322 802 307 802 321 802 320 803 305 803 319 803 318 804 303 804 317 804 329 805 314 805 328 805 332 806 316 806 331 806 343 807 327 807 342 807 325 808 324 808 341 808 323 809 322 809 339 809 321 810 320 810 337 810 319 811 318 811 335 811 317 812 316 812 333 812 328 813 327 813 344 813 342 814 326 814 341 814 340 815 324 815 339 815 338 816 322 816 337 816 336 817 320 817 335 817 334 818 318 818 333 818 345 819 329 819 344 819 332 820 331 820 347 820 358 821 343 821 357 821 341 822 340 822 356 822 339 823 338 823 354 823 337 824 336 824 352 824 335 825 334 825 350 825 333 826 332 826 348 826 344 827 343 827 359 827 357 828 342 828 356 828 355 829 340 829 354 829 353 830 338 830 352 830 351 831 336 831 350 831 349 832 334 832 348 832 360 833 345 833 359 833 362 834 347 834 361 834 373 835 358 835 372 835 356 836 355 836 371 836 354 837 353 837 369 837 352 838 351 838 367 838 350 839 349 839 365 839 348 840 347 840 363 840 359 841 358 841 374 841 372 842 357 842 371 842 370 843 355 843 369 843 368 844 353 844 367 844 366 845 351 845 365 845 364 846 349 846 363 846 375 847 360 847 374 847 362 848 361 848 377 848 388 849 373 849 387 849 371 850 370 850 386 850 369 851 368 851 384 851 367 852 366 852 382 852 365 853 364 853 380 853 363 854 362 854 378 854 374 855 373 855 389 855 387 856 372 856 386 856 385 857 370 857 384 857 383 858 368 858 382 858 381 859 366 859 380 859 379 860 364 860 378 860 390 861 375 861 389 861 392 862 377 862 391 862 403 863 388 863 402 863 386 864 385 864 401 864 384 865 383 865 399 865 382 866 381 866 397 866 380 867 379 867 395 867 378 868 377 868 393 868 389 869 388 869 404 869 402 870 387 870 401 870 400 871 385 871 399 871 398 872 383 872 397 872 396 873 381 873 395 873 394 874 379 874 393 874 390 875 389 875 405 875 392 876 391 876 407 876 418 877 403 877 417 877 401 878 400 878 416 878 399 879 398 879 414 879 397 880 396 880 412 880 395 881 394 881 410 881 393 882 392 882 408 882 404 883 403 883 419 883 417 884 402 884 416 884 415 885 400 885 414 885 398 886 397 886 413 886 411 887 396 887 410 887 409 888 394 888 408 888 420 889 405 889 419 889 422 890 407 890 421 890 433 891 418 891 432 891 416 892 415 892 431 892 429 893 414 893 428 893 412 894 411 894 427 894 410 895 409 895 425 895 408 896 407 896 423 896 419 897 418 897 434 897 432 898 417 898 431 898 430 899 415 899 429 899 413 900 412 900 428 900 426 901 411 901 425 901 424 902 409 902 423 902 420 903 419 903 435 903 437 904 422 904 436 904 448 905 433 905 447 905 431 906 430 906 446 906 444 907 429 907 443 907 442 908 427 908 441 908 425 909 424 909 440 909 423 910 422 910 438 910 434 911 433 911 449 911 447 912 432 912 446 912 430 913 429 913 445 913 428 914 427 914 443 914 441 915 426 915 440 915 439 916 424 916 438 916 435 917 434 917 450 917 453 918 437 918 452 918 464 919 448 919 463 919 446 920 445 920 462 920 460 921 444 921 459 921 458 922 442 922 457 922 440 923 439 923 456 923 438 924 437 924 454 924 449 925 448 925 465 925 463 926 447 926 462 926 461 927 445 927 460 927 443 928 442 928 459 928 457 929 441 929 456 929 455 930 439 930 454 930 450 931 449 931 466 931 468 932 453 932 467 932 479 933 464 933 478 933 462 934 461 934 477 934 475 935 460 935 474 935 473 936 458 936 472 936 456 937 455 937 471 937 454 938 453 938 469 938 465 939 464 939 480 939 478 940 463 940 477 940 476 941 461 941 475 941 459 942 458 942 474 942 472 943 457 943 471 943 470 944 455 944 469 944 466 945 465 945 481 945 1 946 468 946 0 946 479 947 478 947 12 947 477 948 476 948 10 948 475 949 474 949 8 949 6 950 473 950 5 950 4 951 471 951 3 951 2 952 469 952 1 952 480 953 479 953 13 953 478 954 477 954 11 954 476 955 475 955 9 955 7 956 474 956 6 956 5 957 472 957 4 957 3 958 470 958 2 958 481 959 480 959 14 959</p>
        </polylist>
      </mesh>
    </geometry>
  </library_geometries>
  <library_controllers/>
  <library_visual_scenes>
    <visual_scene id="Scene" name="Scene">
      <node id="Camera" name="Camera" type="NODE">
        <matrix sid="transform">0.6858805 -0.3173701 0.6548619 7.481132 0.7276338 0.3124686 -0.6106656 -6.50764 -0.01081678 0.8953432 0.4452454 5.343665 0 0 0 1</matrix>
        <instance_camera url="#Camera-camera"/>
      </node>
      <node id="Lamp" name="Lamp" type="NODE">
        <matrix sid="transform">-0.2908646 -0.7711008 0.5663932 4.076245 0.9551712 -0.1998834 0.2183912 1.005454 -0.05518906 0.6045247 0.7946723 5.903862 0 0 0 1</matrix>
        <instance_light url="#Lamp-light"/>
      </node>
      <node id="Sphere" name="Sphere" type="NODE">
        <matrix sid="transform">1 0 0 0 0 1 0 0 0 0 1 0 0 0 0 1</matrix>
        <instance_geometry url="#Sphere-mesh">
          <bind_material>
            <technique_common>
              <instance_material symbol="Material_001-material" target="#Material_001-material"/>
            </technique_common>
          </bind_material>
        </instance_geometry>
      </node>
    </visual_scene>
  </library_visual_scenes>
  <scene>
    <instance_visual_scene url="#Scene"/>
  </scene>
</COLLADA>